EESchema Schematic File Version 4
EELAYER 30 0
EELAYER END
$Descr A4 11693 8268
encoding utf-8
Sheet 1 1
Title ""
Date ""
Rev ""
Comp ""
Comment1 ""
Comment2 ""
Comment3 ""
Comment4 ""
$EndDescr
$Comp
L Connector:USB_B_Mini J1
U 1 1 5FE903BA
P 1350 3250
F 0 "J1" H 1407 3717 50  0000 C CNN
F 1 "USB_B_Mini" H 1407 3626 50  0000 C CNN
F 2 "Connector_USB:USB_Mini-B_Wuerth_65100516121_Horizontal" H 1500 3200 50  0001 C CNN
F 3 "~" H 1500 3200 50  0001 C CNN
	1    1350 3250
	1    0    0    -1  
$EndComp
$Comp
L power:GND #PWR01
U 1 1 5FE90A1E
P 1350 3850
F 0 "#PWR01" H 1350 3600 50  0001 C CNN
F 1 "GND" H 1355 3677 50  0000 C CNN
F 2 "" H 1350 3850 50  0001 C CNN
F 3 "" H 1350 3850 50  0001 C CNN
	1    1350 3850
	1    0    0    -1  
$EndComp
Wire Wire Line
	1350 3850 1350 3750
Wire Wire Line
	1350 3750 1250 3750
Wire Wire Line
	1250 3750 1250 3650
Connection ~ 1350 3750
Wire Wire Line
	1350 3750 1350 3650
$Comp
L power:VCC #PWR02
U 1 1 5FE9114E
P 1750 2650
F 0 "#PWR02" H 1750 2500 50  0001 C CNN
F 1 "VCC" H 1765 2823 50  0000 C CNN
F 2 "" H 1750 2650 50  0001 C CNN
F 3 "" H 1750 2650 50  0001 C CNN
	1    1750 2650
	1    0    0    -1  
$EndComp
Wire Wire Line
	1650 3050 1750 3050
Wire Wire Line
	1750 3050 1750 2650
$Comp
L Interface_USB:CP2104 U2
U 1 1 5FE9193B
P 5600 3350
F 0 "U2" H 6000 4300 50  0000 C CNN
F 1 "CP2104" H 6050 4200 50  0000 C CNN
F 2 "Package_DFN_QFN:QFN-24-1EP_4x4mm_P0.5mm_EP2.6x2.6mm" H 5750 2400 50  0001 L CNN
F 3 "https://www.silabs.com/documents/public/data-sheets/cp2104.pdf" H 5050 4600 50  0001 C CNN
F 4 "C47742" H 5600 3350 50  0001 C CNN "LCSC"
	1    5600 3350
	1    0    0    -1  
$EndComp
$Comp
L 74xGxx:74LVC1G07 U3
U 1 1 5FE92577
P 7200 3250
F 0 "U3" H 7175 3517 50  0000 C CNN
F 1 "74LVC1G07" H 7175 3426 50  0000 C CNN
F 2 "Package_TO_SOT_SMD:SOT-23-5" H 7200 3250 50  0001 C CNN
F 3 "http://www.ti.com/lit/sg/scyt129e/scyt129e.pdf" H 7200 3250 50  0001 C CNN
F 4 "C7829" H 7200 3250 50  0001 C CNN "LCSC"
	1    7200 3250
	1    0    0    -1  
$EndComp
Wire Wire Line
	6300 3250 6900 3250
Wire Wire Line
	6300 3350 6800 3350
Wire Wire Line
	6800 3350 6800 3450
Wire Wire Line
	6800 3450 7550 3450
Wire Wire Line
	7550 3450 7550 3250
Wire Wire Line
	7550 3250 7450 3250
Wire Wire Line
	7550 3250 7850 3250
Connection ~ 7550 3250
Wire Wire Line
	1650 3250 1850 3250
Wire Wire Line
	1850 3250 1950 3350
Wire Wire Line
	1950 3350 4900 3350
Wire Wire Line
	4900 3250 1950 3250
Wire Wire Line
	1950 3250 1850 3350
Wire Wire Line
	1850 3350 1650 3350
$Comp
L Device:R R5
U 1 1 5FE994DC
P 7850 2900
F 0 "R5" H 7920 2946 50  0000 L CNN
F 1 "1k" H 7920 2855 50  0000 L CNN
F 2 "Resistor_SMD:R_0805_2012Metric" V 7780 2900 50  0001 C CNN
F 3 "~" H 7850 2900 50  0001 C CNN
F 4 "C17513" H 7850 2900 50  0001 C CNN "LCSC"
	1    7850 2900
	1    0    0    -1  
$EndComp
Wire Wire Line
	7850 3050 7850 3250
Connection ~ 7850 3250
Wire Wire Line
	7850 3250 8550 3250
$Comp
L power:VCC #PWR018
U 1 1 5FE9A99F
P 7850 2650
F 0 "#PWR018" H 7850 2500 50  0001 C CNN
F 1 "VCC" H 7865 2823 50  0000 C CNN
F 2 "" H 7850 2650 50  0001 C CNN
F 3 "" H 7850 2650 50  0001 C CNN
	1    7850 2650
	1    0    0    -1  
$EndComp
Wire Wire Line
	7850 2650 7850 2750
$Comp
L Power_Protection:SRV05-4 U1
U 1 1 5FE9B9E9
P 2550 5050
F 0 "U1" H 2750 5600 50  0000 C CNN
F 1 "SRV05-4" H 2850 5500 50  0000 C CNN
F 2 "Package_TO_SOT_SMD:SOT-23-6" H 3250 4600 50  0001 C CNN
F 3 "http://www.onsemi.com/pub/Collateral/SRV05-4-D.PDF" H 2550 5050 50  0001 C CNN
F 4 "C85364" H 2550 5050 50  0001 C CNN "LCSC"
	1    2550 5050
	1    0    0    -1  
$EndComp
$Comp
L power:VCC #PWR05
U 1 1 5FEA4784
P 2550 4450
F 0 "#PWR05" H 2550 4300 50  0001 C CNN
F 1 "VCC" H 2565 4623 50  0000 C CNN
F 2 "" H 2550 4450 50  0001 C CNN
F 3 "" H 2550 4450 50  0001 C CNN
	1    2550 4450
	1    0    0    -1  
$EndComp
Wire Wire Line
	2550 4450 2550 4550
$Comp
L power:GND #PWR06
U 1 1 5FEA4FDE
P 2550 5650
F 0 "#PWR06" H 2550 5400 50  0001 C CNN
F 1 "GND" H 2555 5477 50  0000 C CNN
F 2 "" H 2550 5650 50  0001 C CNN
F 3 "" H 2550 5650 50  0001 C CNN
	1    2550 5650
	1    0    0    -1  
$EndComp
Wire Wire Line
	2550 5650 2550 5550
$Comp
L power:GND #PWR016
U 1 1 5FEA6E8D
P 5700 4550
F 0 "#PWR016" H 5700 4300 50  0001 C CNN
F 1 "GND" H 5705 4377 50  0000 C CNN
F 2 "" H 5700 4550 50  0001 C CNN
F 3 "" H 5700 4550 50  0001 C CNN
	1    5700 4550
	1    0    0    -1  
$EndComp
Wire Wire Line
	5700 4550 5700 4450
Wire Wire Line
	5700 4450 5600 4450
Wire Wire Line
	5600 4450 5600 4350
Connection ~ 5700 4450
Wire Wire Line
	5700 4450 5700 4350
$Comp
L power:VCC #PWR014
U 1 1 5FEA8125
P 4800 2250
F 0 "#PWR014" H 4800 2100 50  0001 C CNN
F 1 "VCC" H 4815 2423 50  0000 C CNN
F 2 "" H 4800 2250 50  0001 C CNN
F 3 "" H 4800 2250 50  0001 C CNN
	1    4800 2250
	1    0    0    -1  
$EndComp
Wire Wire Line
	4900 2950 4800 2950
Wire Wire Line
	4800 2950 4800 2750
Wire Wire Line
	4900 2750 4800 2750
Connection ~ 4800 2750
Wire Wire Line
	4800 2750 4800 2250
$Comp
L power:+3V3 #PWR015
U 1 1 5FEADD16
P 5400 2250
F 0 "#PWR015" H 5400 2100 50  0001 C CNN
F 1 "+3V3" H 5415 2423 50  0000 C CNN
F 2 "" H 5400 2250 50  0001 C CNN
F 3 "" H 5400 2250 50  0001 C CNN
	1    5400 2250
	1    0    0    -1  
$EndComp
Wire Wire Line
	5400 2250 5400 2350
Wire Wire Line
	5400 2350 5600 2350
Wire Wire Line
	5600 2350 5600 2450
Connection ~ 5400 2350
Wire Wire Line
	5400 2350 5400 2450
NoConn ~ 5800 2450
$Comp
L Device:C C1
U 1 1 5FEB2A79
P 1950 1300
F 0 "C1" H 2065 1346 50  0000 L CNN
F 1 "4.7u" H 2065 1255 50  0000 L CNN
F 2 "Capacitor_SMD:C_0805_2012Metric" H 1988 1150 50  0001 C CNN
F 3 "~" H 1950 1300 50  0001 C CNN
F 4 "C1779" H 1950 1300 50  0001 C CNN "LCSC"
	1    1950 1300
	1    0    0    -1  
$EndComp
$Comp
L power:VCC #PWR03
U 1 1 5FEB49F8
P 1950 950
F 0 "#PWR03" H 1950 800 50  0001 C CNN
F 1 "VCC" H 1965 1123 50  0000 C CNN
F 2 "" H 1950 950 50  0001 C CNN
F 3 "" H 1950 950 50  0001 C CNN
	1    1950 950 
	1    0    0    -1  
$EndComp
Wire Wire Line
	1950 950  1950 1050
Wire Wire Line
	1950 1450 1950 1550
$Comp
L power:GND #PWR04
U 1 1 5FEB60A6
P 1950 1650
F 0 "#PWR04" H 1950 1400 50  0001 C CNN
F 1 "GND" H 1955 1477 50  0000 C CNN
F 2 "" H 1950 1650 50  0001 C CNN
F 3 "" H 1950 1650 50  0001 C CNN
	1    1950 1650
	1    0    0    -1  
$EndComp
Wire Wire Line
	3400 1050 3400 1150
Wire Wire Line
	3400 1450 3400 1550
$Comp
L power:GND #PWR08
U 1 1 5FEBA1D0
P 3400 1550
F 0 "#PWR08" H 3400 1300 50  0001 C CNN
F 1 "GND" H 3405 1377 50  0000 C CNN
F 2 "" H 3400 1550 50  0001 C CNN
F 3 "" H 3400 1550 50  0001 C CNN
	1    3400 1550
	1    0    0    -1  
$EndComp
$Comp
L power:+3V3 #PWR07
U 1 1 5FEBD0C1
P 3400 1050
F 0 "#PWR07" H 3400 900 50  0001 C CNN
F 1 "+3V3" H 3415 1223 50  0000 C CNN
F 2 "" H 3400 1050 50  0001 C CNN
F 3 "" H 3400 1050 50  0001 C CNN
	1    3400 1050
	1    0    0    -1  
$EndComp
$Comp
L Device:R R2
U 1 1 5FEBF387
P 3850 2900
F 0 "R2" H 3780 2854 50  0000 R CNN
F 1 "1k" H 3780 2945 50  0000 R CNN
F 2 "Resistor_SMD:R_0402_1005Metric" V 3780 2900 50  0001 C CNN
F 3 "~" H 3850 2900 50  0001 C CNN
F 4 "C11702" H 3850 2900 50  0001 C CNN "LCSC"
	1    3850 2900
	-1   0    0    1   
$EndComp
$Comp
L Device:R R4
U 1 1 5FEC54BA
P 6550 3850
F 0 "R4" V 6343 3850 50  0000 C CNN
F 1 "1k" V 6434 3850 50  0000 C CNN
F 2 "Resistor_SMD:R_0402_1005Metric" V 6480 3850 50  0001 C CNN
F 3 "~" H 6550 3850 50  0001 C CNN
F 4 "C11702" H 6550 3850 50  0001 C CNN "LCSC"
	1    6550 3850
	0    1    1    0   
$EndComp
Wire Wire Line
	6400 3850 6300 3850
$Comp
L power:+3V3 #PWR017
U 1 1 5FEC726F
P 6800 3850
F 0 "#PWR017" H 6800 3700 50  0001 C CNN
F 1 "+3V3" V 6815 3978 50  0000 L CNN
F 2 "" H 6800 3850 50  0001 C CNN
F 3 "" H 6800 3850 50  0001 C CNN
	1    6800 3850
	0    1    1    0   
$EndComp
Wire Wire Line
	6800 3850 6700 3850
Text Label 4800 3550 2    50   ~ 0
TX_LED
Text Label 4800 3650 2    50   ~ 0
RX_LED
NoConn ~ 4900 3750
NoConn ~ 4900 3850
NoConn ~ 6300 3950
NoConn ~ 6300 4050
NoConn ~ 6300 3650
NoConn ~ 6300 3550
NoConn ~ 6300 3050
NoConn ~ 6300 2950
NoConn ~ 6300 2850
NoConn ~ 6300 2750
$Comp
L Device:C C4
U 1 1 5FED6F37
P 3400 1300
F 0 "C4" H 3515 1346 50  0000 L CNN
F 1 "4.7u" H 3515 1255 50  0000 L CNN
F 2 "Capacitor_SMD:C_0805_2012Metric" H 3438 1150 50  0001 C CNN
F 3 "~" H 3400 1300 50  0001 C CNN
F 4 "C1779" H 3400 1300 50  0001 C CNN "LCSC"
	1    3400 1300
	1    0    0    -1  
$EndComp
$Comp
L Device:C C5
U 1 1 5FED740C
P 4600 4300
F 0 "C5" H 4715 4346 50  0000 L CNN
F 1 "4.7u" H 4715 4255 50  0000 L CNN
F 2 "Capacitor_SMD:C_0805_2012Metric" H 4638 4150 50  0001 C CNN
F 3 "~" H 4600 4300 50  0001 C CNN
F 4 "C1779" H 4600 4300 50  0001 C CNN "LCSC"
	1    4600 4300
	1    0    0    -1  
$EndComp
Wire Wire Line
	4900 4050 4600 4050
Wire Wire Line
	4600 4050 4600 4150
$Comp
L power:GND #PWR013
U 1 1 5FED8E10
P 4600 4550
F 0 "#PWR013" H 4600 4300 50  0001 C CNN
F 1 "GND" H 4605 4377 50  0000 C CNN
F 2 "" H 4600 4550 50  0001 C CNN
F 3 "" H 4600 4550 50  0001 C CNN
	1    4600 4550
	1    0    0    -1  
$EndComp
Wire Wire Line
	4600 4550 4600 4450
$Comp
L Device:R R3
U 1 1 5FEE0C9F
P 4250 2900
F 0 "R3" H 4320 2946 50  0000 L CNN
F 1 "1k" H 4320 2855 50  0000 L CNN
F 2 "Resistor_SMD:R_0402_1005Metric" V 4180 2900 50  0001 C CNN
F 3 "~" H 4250 2900 50  0001 C CNN
F 4 "C11702" H 4250 2900 50  0001 C CNN "LCSC"
	1    4250 2900
	1    0    0    -1  
$EndComp
Wire Wire Line
	3850 3650 3850 3050
Wire Wire Line
	3850 3650 4900 3650
Wire Wire Line
	4250 3550 4250 3050
Wire Wire Line
	4250 3550 4900 3550
$Comp
L power:+3V3 #PWR012
U 1 1 5FEF7B96
P 4250 2250
F 0 "#PWR012" H 4250 2100 50  0001 C CNN
F 1 "+3V3" H 4265 2423 50  0000 C CNN
F 2 "" H 4250 2250 50  0001 C CNN
F 3 "" H 4250 2250 50  0001 C CNN
	1    4250 2250
	1    0    0    -1  
$EndComp
$Comp
L power:+3V3 #PWR011
U 1 1 5FEF81E7
P 3850 2250
F 0 "#PWR011" H 3850 2100 50  0001 C CNN
F 1 "+3V3" H 3865 2423 50  0000 C CNN
F 2 "" H 3850 2250 50  0001 C CNN
F 3 "" H 3850 2250 50  0001 C CNN
	1    3850 2250
	1    0    0    -1  
$EndComp
Wire Wire Line
	3850 2250 3850 2350
Wire Wire Line
	4250 2250 4250 2350
Wire Wire Line
	4250 2650 4250 2750
Wire Wire Line
	3850 2650 3850 2750
$Comp
L Connector_Generic:Conn_01x03 J2
U 1 1 5FF0C239
P 8300 1300
F 0 "J2" H 8380 1342 50  0000 L CNN
F 1 "JST-XH" H 8380 1251 50  0000 L CNN
F 2 "Connector_JST:JST_XH_B3B-XH-A_1x03_P2.50mm_Vertical" H 8300 1300 50  0001 C CNN
F 3 "~" H 8300 1300 50  0001 C CNN
	1    8300 1300
	1    0    0    -1  
$EndComp
$Comp
L power:VCC #PWR019
U 1 1 5FF0F48E
P 8000 1100
F 0 "#PWR019" H 8000 950 50  0001 C CNN
F 1 "VCC" H 8015 1273 50  0000 C CNN
F 2 "" H 8000 1100 50  0001 C CNN
F 3 "" H 8000 1100 50  0001 C CNN
	1    8000 1100
	1    0    0    -1  
$EndComp
$Comp
L power:GND #PWR020
U 1 1 5FF0FC62
P 8000 1500
F 0 "#PWR020" H 8000 1250 50  0001 C CNN
F 1 "GND" H 8005 1327 50  0000 C CNN
F 2 "" H 8000 1500 50  0001 C CNN
F 3 "" H 8000 1500 50  0001 C CNN
	1    8000 1500
	1    0    0    -1  
$EndComp
Wire Wire Line
	8000 1500 8000 1400
Wire Wire Line
	8000 1400 8100 1400
Wire Wire Line
	8100 1200 8000 1200
Wire Wire Line
	8000 1200 8000 1100
Wire Wire Line
	7750 1300 8100 1300
Text Label 7750 1300 0    50   ~ 0
DATA
$Comp
L Connector_Generic:Conn_01x03 J3
U 1 1 5FF16B33
P 9450 1300
F 0 "J3" H 9530 1342 50  0000 L CNN
F 1 "JST-XH" H 9530 1251 50  0000 L CNN
F 2 "Connector_JST:JST_XH_B3B-XH-A_1x03_P2.50mm_Vertical" H 9450 1300 50  0001 C CNN
F 3 "~" H 9450 1300 50  0001 C CNN
	1    9450 1300
	1    0    0    -1  
$EndComp
$Comp
L power:VCC #PWR021
U 1 1 5FF16DB3
P 9150 1100
F 0 "#PWR021" H 9150 950 50  0001 C CNN
F 1 "VCC" H 9165 1273 50  0000 C CNN
F 2 "" H 9150 1100 50  0001 C CNN
F 3 "" H 9150 1100 50  0001 C CNN
	1    9150 1100
	1    0    0    -1  
$EndComp
$Comp
L power:GND #PWR022
U 1 1 5FF16DBD
P 9150 1500
F 0 "#PWR022" H 9150 1250 50  0001 C CNN
F 1 "GND" H 9155 1327 50  0000 C CNN
F 2 "" H 9150 1500 50  0001 C CNN
F 3 "" H 9150 1500 50  0001 C CNN
	1    9150 1500
	1    0    0    -1  
$EndComp
Wire Wire Line
	9150 1500 9150 1400
Wire Wire Line
	9150 1400 9250 1400
Wire Wire Line
	9250 1200 9150 1200
Wire Wire Line
	9150 1200 9150 1100
Wire Wire Line
	8900 1300 9250 1300
Text Label 8900 1300 0    50   ~ 0
DATA
Text Label 8550 3250 2    50   ~ 0
DATA
NoConn ~ 1650 3450
$Comp
L power:PWR_FLAG #FLG01
U 1 1 5FF2AD89
P 5600 2150
F 0 "#FLG01" H 5600 2225 50  0001 C CNN
F 1 "PWR_FLAG" H 5600 2323 50  0000 C CNN
F 2 "" H 5600 2150 50  0001 C CNN
F 3 "~" H 5600 2150 50  0001 C CNN
	1    5600 2150
	1    0    0    -1  
$EndComp
Wire Wire Line
	5600 2150 5600 2350
Connection ~ 5600 2350
$Comp
L Device:R R1
U 1 1 5FF348C5
P 3400 2900
F 0 "R1" H 3330 2854 50  0000 R CNN
F 1 "1k" H 3330 2945 50  0000 R CNN
F 2 "Resistor_SMD:R_0402_1005Metric" V 3330 2900 50  0001 C CNN
F 3 "~" H 3400 2900 50  0001 C CNN
F 4 "C11702" H 3400 2900 50  0001 C CNN "LCSC"
	1    3400 2900
	-1   0    0    1   
$EndComp
$Comp
L power:GND #PWR010
U 1 1 5FF34F57
P 3400 3500
F 0 "#PWR010" H 3400 3250 50  0001 C CNN
F 1 "GND" H 3405 3327 50  0000 C CNN
F 2 "" H 3400 3500 50  0001 C CNN
F 3 "" H 3400 3500 50  0001 C CNN
	1    3400 3500
	1    0    0    -1  
$EndComp
Wire Wire Line
	3400 3500 3400 3050
Wire Wire Line
	3400 2750 3400 2650
$Comp
L power:+3V3 #PWR09
U 1 1 5FF387B9
P 3400 2250
F 0 "#PWR09" H 3400 2100 50  0001 C CNN
F 1 "+3V3" H 3415 2423 50  0000 C CNN
F 2 "" H 3400 2250 50  0001 C CNN
F 3 "" H 3400 2250 50  0001 C CNN
	1    3400 2250
	1    0    0    -1  
$EndComp
Wire Wire Line
	3400 2250 3400 2350
$Comp
L Device:LED D2
U 1 1 5FF3CB00
P 3850 2500
F 0 "D2" V 3889 2382 50  0000 R CNN
F 1 "green" V 3798 2382 50  0000 R CNN
F 2 "Diode_SMD:D_0603_1608Metric_Castellated" H 3850 2500 50  0001 C CNN
F 3 "~" H 3850 2500 50  0001 C CNN
F 4 "C72043" V 3850 2500 50  0001 C CNN "LCSC"
	1    3850 2500
	0    -1   -1   0   
$EndComp
$Comp
L Device:LED D1
U 1 1 5FF3D140
P 3400 2500
F 0 "D1" V 3439 2382 50  0000 R CNN
F 1 "white" V 3348 2382 50  0000 R CNN
F 2 "Diode_SMD:D_0603_1608Metric_Castellated" H 3400 2500 50  0001 C CNN
F 3 "~" H 3400 2500 50  0001 C CNN
F 4 "C2290" V 3400 2500 50  0001 C CNN "LCSC"
	1    3400 2500
	0    -1   -1   0   
$EndComp
$Comp
L Device:LED D3
U 1 1 5FF3E729
P 4250 2500
F 0 "D3" V 4289 2382 50  0000 R CNN
F 1 "red" V 4198 2382 50  0000 R CNN
F 2 "Diode_SMD:D_0603_1608Metric_Castellated" H 4250 2500 50  0001 C CNN
F 3 "~" H 4250 2500 50  0001 C CNN
F 4 "C2286" V 4250 2500 50  0001 C CNN "LCSC"
	1    4250 2500
	0    -1   -1   0   
$EndComp
Text Label 2050 3250 0    50   ~ 0
D-
Text Label 2050 3350 0    50   ~ 0
D+
Wire Wire Line
	2050 4950 1650 4950
Wire Wire Line
	2050 5150 1650 5150
Text Label 1650 4950 0    50   ~ 0
D+
Text Label 1650 5150 0    50   ~ 0
D-
Text Label 6400 3250 0    50   ~ 0
TxD
Text Label 4800 4050 2    50   ~ 0
VPP
Text Label 3450 4950 2    50   ~ 0
DATA
Wire Wire Line
	3450 4950 3050 4950
$Comp
L Device:C C2
U 1 1 5FF84E84
P 2400 1300
F 0 "C2" H 2515 1346 50  0000 L CNN
F 1 "100n" H 2515 1255 50  0000 L CNN
F 2 "Capacitor_SMD:C_0402_1005Metric" H 2438 1150 50  0001 C CNN
F 3 "~" H 2400 1300 50  0001 C CNN
F 4 "C1525" H 2400 1300 50  0001 C CNN "LCSC"
	1    2400 1300
	1    0    0    -1  
$EndComp
Wire Wire Line
	1950 1050 2400 1050
Wire Wire Line
	2400 1050 2400 1150
Connection ~ 1950 1050
Wire Wire Line
	1950 1050 1950 1150
Wire Wire Line
	1950 1550 2400 1550
Wire Wire Line
	2400 1550 2400 1450
Connection ~ 1950 1550
Wire Wire Line
	1950 1550 1950 1650
NoConn ~ 3050 5150
$Comp
L Device:C C3
U 1 1 5FFC3DCC
P 2850 1300
F 0 "C3" H 2965 1346 50  0000 L CNN
F 1 "100n" H 2965 1255 50  0000 L CNN
F 2 "Capacitor_SMD:C_0402_1005Metric" H 2888 1150 50  0001 C CNN
F 3 "~" H 2850 1300 50  0001 C CNN
F 4 "C1525" H 2850 1300 50  0001 C CNN "LCSC"
	1    2850 1300
	1    0    0    -1  
$EndComp
Wire Wire Line
	2400 1050 2850 1050
Wire Wire Line
	2850 1050 2850 1150
Wire Wire Line
	2400 1550 2850 1550
Wire Wire Line
	2850 1550 2850 1450
Connection ~ 2400 1050
Connection ~ 2400 1550
$EndSCHEMATC
