EESchema Schematic File Version 4
EELAYER 30 0
EELAYER END
$Descr A4 11693 8268
encoding utf-8
Sheet 1 1
Title ""
Date ""
Rev ""
Comp ""
Comment1 ""
Comment2 ""
Comment3 ""
Comment4 ""
$EndDescr
$Comp
L power:VCC #PWR05
U 1 1 5FE86FB5
P 3700 2500
F 0 "#PWR05" H 3700 2350 50  0001 C CNN
F 1 "VCC" H 3715 2673 50  0000 C CNN
F 2 "" H 3700 2500 50  0001 C CNN
F 3 "" H 3700 2500 50  0001 C CNN
	1    3700 2500
	1    0    0    -1  
$EndComp
Wire Wire Line
	3700 2500 3700 2700
Wire Wire Line
	3700 4900 3700 5000
$Comp
L power:GND #PWR06
U 1 1 5FE879F2
P 3700 5000
F 0 "#PWR06" H 3700 4750 50  0001 C CNN
F 1 "GND" H 3705 4827 50  0000 C CNN
F 2 "" H 3700 5000 50  0001 C CNN
F 3 "" H 3700 5000 50  0001 C CNN
	1    3700 5000
	1    0    0    -1  
$EndComp
$Comp
L Connector_Generic:Conn_01x03 J1
U 1 1 5FE88599
P 7850 1650
F 0 "J1" H 7930 1692 50  0000 L CNN
F 1 "3-829868-3" H 7930 1601 50  0000 L CNN
F 2 "Connector_TE_3-829868:TE_3-829868-3" H 7850 1650 50  0001 C CNN
F 3 "~" H 7850 1650 50  0001 C CNN
	1    7850 1650
	1    0    0    -1  
$EndComp
$Comp
L Connector_Generic:Conn_01x11 J2
U 1 1 5FE8912D
P 7850 3400
F 0 "J2" H 7930 3442 50  0000 L CNN
F 1 "PR45" H 7930 3351 50  0000 L CNN
F 2 "Relay_PR45:Relay_PR45" H 7850 3400 50  0001 C CNN
F 3 "~" H 7850 3400 50  0001 C CNN
	1    7850 3400
	1    0    0    -1  
$EndComp
$Comp
L power:VCC #PWR08
U 1 1 5FE90146
P 7550 1450
F 0 "#PWR08" H 7550 1300 50  0001 C CNN
F 1 "VCC" H 7565 1623 50  0000 C CNN
F 2 "" H 7550 1450 50  0001 C CNN
F 3 "" H 7550 1450 50  0001 C CNN
	1    7550 1450
	1    0    0    -1  
$EndComp
Wire Wire Line
	7650 1550 7550 1550
Wire Wire Line
	7550 1550 7550 1450
Wire Wire Line
	6350 1650 6350 1750
Wire Wire Line
	6350 1650 7650 1650
$Comp
L power:GND #PWR09
U 1 1 5FE90F10
P 7550 2150
F 0 "#PWR09" H 7550 1900 50  0001 C CNN
F 1 "GND" H 7555 1977 50  0000 C CNN
F 2 "" H 7550 2150 50  0001 C CNN
F 3 "" H 7550 2150 50  0001 C CNN
	1    7550 2150
	1    0    0    -1  
$EndComp
Wire Wire Line
	7550 2150 7550 1750
Wire Wire Line
	7550 1750 7650 1750
$Comp
L power:GND #PWR07
U 1 1 5FE92356
P 6350 2150
F 0 "#PWR07" H 6350 1900 50  0001 C CNN
F 1 "GND" H 6355 1977 50  0000 C CNN
F 2 "" H 6350 2150 50  0001 C CNN
F 3 "" H 6350 2150 50  0001 C CNN
	1    6350 2150
	1    0    0    -1  
$EndComp
Wire Wire Line
	6350 2150 6350 2050
$Comp
L power:GND #PWR010
U 1 1 5FE97F8F
P 7550 5100
F 0 "#PWR010" H 7550 4850 50  0001 C CNN
F 1 "GND" H 7555 4927 50  0000 C CNN
F 2 "" H 7550 5100 50  0001 C CNN
F 3 "" H 7550 5100 50  0001 C CNN
	1    7550 5100
	1    0    0    -1  
$EndComp
Wire Wire Line
	7550 5100 7550 5000
Wire Wire Line
	7550 5000 7650 5000
Wire Wire Line
	7150 4900 7650 4900
Text Label 7150 4600 0    50   ~ 0
MOSI
Text Label 7150 4700 0    50   ~ 0
MISO
Text Label 7150 4800 0    50   ~ 0
SCK
Text Label 7150 4900 0    50   ~ 0
~RST
$Comp
L Connector_Generic:Conn_01x05 J3
U 1 1 5FEA0385
P 7850 4800
F 0 "J3" H 7768 4467 50  0000 C CNN
F 1 "Conn_01x05" H 7768 4466 50  0001 C CNN
F 2 "Connector_PinHeader_2.54mm:PinHeader_1x05_P2.54mm_Vertical" H 7850 4800 50  0001 C CNN
F 3 "~" H 7850 4800 50  0001 C CNN
	1    7850 4800
	1    0    0    1   
$EndComp
Wire Wire Line
	7150 4600 7650 4600
Wire Wire Line
	7150 4700 7650 4700
Wire Wire Line
	7150 4800 7650 4800
Wire Wire Line
	2350 3000 2850 3000
Text Label 2350 3000 0    50   ~ 0
~RST
$Comp
L Device:R R2
U 1 1 5FEB6F81
P 2850 2750
F 0 "R2" H 2920 2796 50  0000 L CNN
F 1 "10k" H 2920 2705 50  0000 L CNN
F 2 "Resistor_SMD:R_0402_1005Metric" V 2780 2750 50  0001 C CNN
F 3 "~" H 2850 2750 50  0001 C CNN
F 4 "C25744" H 2850 2750 50  0001 C CNN "LCSC"
	1    2850 2750
	1    0    0    -1  
$EndComp
$Comp
L power:VCC #PWR04
U 1 1 5FEB7C2A
P 2850 2500
F 0 "#PWR04" H 2850 2350 50  0001 C CNN
F 1 "VCC" H 2865 2673 50  0000 C CNN
F 2 "" H 2850 2500 50  0001 C CNN
F 3 "" H 2850 2500 50  0001 C CNN
	1    2850 2500
	1    0    0    -1  
$EndComp
Wire Wire Line
	2850 2500 2850 2600
Wire Wire Line
	2850 2900 2850 3000
Connection ~ 2850 3000
Wire Wire Line
	2850 3000 3100 3000
$Comp
L Diode:SM6T6V8A D2
U 1 1 5FE8D115
P 6350 1900
F 0 "D2" V 6304 1980 50  0000 L CNN
F 1 "BSD5A051V" V 6395 1980 50  0000 L CNN
F 2 "Diode_SMD:D_SOD-523" H 6350 1700 50  0001 C CNN
F 3 "Bourne-Semicon-Shenzhen-BSD5A051V_C151987.pdf" H 6300 1900 50  0001 C CNN
F 4 "C151987" V 6350 1900 50  0001 C CNN "LCSC"
	1    6350 1900
	0    1    1    0   
$EndComp
Wire Wire Line
	6350 1650 5900 1650
Connection ~ 6350 1650
Text Label 5900 1650 0    50   ~ 0
DATA
$Comp
L Device:R R1
U 1 1 5FEBD2CD
P 2550 3650
F 0 "R1" H 2620 3696 50  0000 L CNN
F 1 "470" H 2620 3605 50  0000 L CNN
F 2 "Resistor_SMD:R_0402_1005Metric" V 2480 3650 50  0001 C CNN
F 3 "~" H 2550 3650 50  0001 C CNN
F 4 "C25117" H 2550 3650 50  0001 C CNN "LCSC"
	1    2550 3650
	1    0    0    -1  
$EndComp
$Comp
L Device:LED D1
U 1 1 5FEBF83E
P 2550 4050
F 0 "D1" V 2589 3932 50  0000 R CNN
F 1 "KT-0603R" V 2498 3932 50  0000 R CNN
F 2 "Diode_SMD:D_0603_1608Metric_Castellated" H 2550 4050 50  0001 C CNN
F 3 "~" H 2550 4050 50  0001 C CNN
F 4 "C2286" V 2550 4050 50  0001 C CNN "LCSC"
	1    2550 4050
	0    -1   -1   0   
$EndComp
$Comp
L MCU_Microchip_ATtiny:ATtiny2313A-SU U1
U 1 1 5FEC0DCC
P 3700 3800
F 0 "U1" H 3850 5000 50  0000 C CNN
F 1 "ATtiny2313A-SU" H 4100 4900 50  0000 C CNN
F 2 "Package_SO:SOIC-20W_7.5x12.8mm_P1.27mm" H 3700 3800 50  0001 C CIN
F 3 "http://ww1.microchip.com/downloads/en/DeviceDoc/doc8246.pdf" H 3700 3800 50  0001 C CNN
F 4 "C22281" H 3700 3800 50  0001 C CNN "LCSC"
	1    3700 3800
	1    0    0    -1  
$EndComp
$Comp
L power:GND #PWR03
U 1 1 5FEC3F04
P 2550 4300
F 0 "#PWR03" H 2550 4050 50  0001 C CNN
F 1 "GND" H 2555 4127 50  0000 C CNN
F 2 "" H 2550 4300 50  0001 C CNN
F 3 "" H 2550 4300 50  0001 C CNN
	1    2550 4300
	1    0    0    -1  
$EndComp
Wire Wire Line
	2550 4200 2550 4300
Wire Wire Line
	2550 3900 2550 3800
Wire Wire Line
	2550 3500 2550 3400
Wire Wire Line
	2550 3400 3100 3400
Wire Wire Line
	4300 3500 4900 3500
Wire Wire Line
	4300 3600 4900 3600
Wire Wire Line
	4300 3700 4900 3700
Text Label 4900 3500 2    50   ~ 0
MOSI
Text Label 4900 3600 2    50   ~ 0
MISO
Text Label 4900 3700 2    50   ~ 0
SCK
Wire Wire Line
	4300 3900 4400 3900
Wire Wire Line
	4400 3900 4400 4000
Wire Wire Line
	4400 4000 4300 4000
Wire Wire Line
	4400 4000 4900 4000
Connection ~ 4400 4000
Text Label 4900 4000 2    50   ~ 0
DATA
Wire Wire Line
	7650 2900 7150 2900
Wire Wire Line
	7650 3000 7150 3000
Wire Wire Line
	7650 3100 7150 3100
Wire Wire Line
	7650 3200 7150 3200
Wire Wire Line
	7650 3300 7150 3300
Wire Wire Line
	7650 3400 7150 3400
Wire Wire Line
	7650 3500 7150 3500
Wire Wire Line
	7650 3600 7150 3600
Wire Wire Line
	7650 3700 7150 3700
Wire Wire Line
	7650 3800 7150 3800
Wire Wire Line
	7650 3900 7150 3900
Text Label 7150 2900 0    50   ~ 0
P1
Text Label 7150 3000 0    50   ~ 0
P2
Text Label 7150 3100 0    50   ~ 0
P3
Text Label 7150 3200 0    50   ~ 0
P4
Text Label 7150 3300 0    50   ~ 0
P5
Text Label 7150 3400 0    50   ~ 0
MOSI
Text Label 7150 3500 0    50   ~ 0
P7
Text Label 7150 3600 0    50   ~ 0
P8
Text Label 7150 3700 0    50   ~ 0
P9
Text Label 7150 3800 0    50   ~ 0
P10
Text Label 7150 3900 0    50   ~ 0
P11
$Comp
L power:GND #PWR02
U 1 1 5FEDFC41
P 1650 2350
F 0 "#PWR02" H 1650 2100 50  0001 C CNN
F 1 "GND" H 1655 2177 50  0000 C CNN
F 2 "" H 1650 2350 50  0001 C CNN
F 3 "" H 1650 2350 50  0001 C CNN
	1    1650 2350
	1    0    0    -1  
$EndComp
$Comp
L power:VCC #PWR01
U 1 1 5FEE0211
P 1650 1850
F 0 "#PWR01" H 1650 1700 50  0001 C CNN
F 1 "VCC" H 1665 2023 50  0000 C CNN
F 2 "" H 1650 1850 50  0001 C CNN
F 3 "" H 1650 1850 50  0001 C CNN
	1    1650 1850
	1    0    0    -1  
$EndComp
$Comp
L Device:C C1
U 1 1 5FEE08CA
P 1650 2100
F 0 "C1" H 1765 2146 50  0000 L CNN
F 1 "10u" H 1765 2055 50  0000 L CNN
F 2 "Capacitor_SMD:C_1206_3216Metric" H 1688 1950 50  0001 C CNN
F 3 "~" H 1650 2100 50  0001 C CNN
F 4 "C13585" H 1650 2100 50  0001 C CNN "LCSC"
	1    1650 2100
	1    0    0    -1  
$EndComp
Wire Wire Line
	1650 2250 1650 2350
Wire Wire Line
	1650 1950 1650 1850
Wire Wire Line
	4300 3000 4900 3000
Wire Wire Line
	4300 3100 4900 3100
Wire Wire Line
	4300 3200 4900 3200
Wire Wire Line
	4300 3300 4900 3300
Wire Wire Line
	4300 3400 4900 3400
Wire Wire Line
	4300 4100 4900 4100
Wire Wire Line
	4300 4200 4900 4200
Wire Wire Line
	4300 4300 4900 4300
Wire Wire Line
	4300 4400 4900 4400
Wire Wire Line
	4300 4500 4900 4500
Text Label 4900 3000 2    50   ~ 0
P1
Text Label 4900 3100 2    50   ~ 0
P2
Text Label 4900 3200 2    50   ~ 0
P3
Text Label 4900 3300 2    50   ~ 0
P4
Text Label 4900 3400 2    50   ~ 0
P5
Text Label 4900 4100 2    50   ~ 0
P7
Text Label 4900 4200 2    50   ~ 0
P8
Text Label 4900 4300 2    50   ~ 0
P9
Text Label 4900 4400 2    50   ~ 0
P10
Text Label 4900 4500 2    50   ~ 0
P11
$Comp
L power:PWR_FLAG #FLG0101
U 1 1 5FF28713
P 7250 1450
F 0 "#FLG0101" H 7250 1525 50  0001 C CNN
F 1 "PWR_FLAG" H 7250 1623 50  0000 C CNN
F 2 "" H 7250 1450 50  0001 C CNN
F 3 "~" H 7250 1450 50  0001 C CNN
	1    7250 1450
	1    0    0    -1  
$EndComp
Wire Wire Line
	7550 1550 7250 1550
Wire Wire Line
	7250 1550 7250 1450
Connection ~ 7550 1550
$Comp
L power:PWR_FLAG #FLG0102
U 1 1 5FF2B0C3
P 7250 1850
F 0 "#FLG0102" H 7250 1925 50  0001 C CNN
F 1 "PWR_FLAG" H 7250 2023 50  0000 C CNN
F 2 "" H 7250 1850 50  0001 C CNN
F 3 "~" H 7250 1850 50  0001 C CNN
	1    7250 1850
	-1   0    0    1   
$EndComp
Wire Wire Line
	7250 1850 7250 1750
Wire Wire Line
	7250 1750 7550 1750
Connection ~ 7550 1750
NoConn ~ 3100 3200
$EndSCHEMATC
