G04 #@! TF.GenerationSoftware,KiCad,Pcbnew,5.1.8+dfsg1-1*
G04 #@! TF.CreationDate,2020-12-27T20:34:30+01:00*
G04 #@! TF.ProjectId,pr45,70723435-2e6b-4696-9361-645f70636258,rev?*
G04 #@! TF.SameCoordinates,Original*
G04 #@! TF.FileFunction,Copper,L2,Bot*
G04 #@! TF.FilePolarity,Positive*
%FSLAX46Y46*%
G04 Gerber Fmt 4.6, Leading zero omitted, Abs format (unit mm)*
G04 Created by KiCad (PCBNEW 5.1.8+dfsg1-1) date 2020-12-27 20:34:30*
%MOMM*%
%LPD*%
G01*
G04 APERTURE LIST*
G04 #@! TA.AperFunction,ComponentPad*
%ADD10C,4.500000*%
G04 #@! TD*
G04 #@! TA.AperFunction,ConnectorPad*
%ADD11R,5.000000X1.800000*%
G04 #@! TD*
G04 #@! TA.AperFunction,ComponentPad*
%ADD12O,1.700000X1.700000*%
G04 #@! TD*
G04 #@! TA.AperFunction,ComponentPad*
%ADD13R,1.700000X1.700000*%
G04 #@! TD*
G04 #@! TA.AperFunction,ViaPad*
%ADD14C,0.800000*%
G04 #@! TD*
G04 #@! TA.AperFunction,Conductor*
%ADD15C,0.400000*%
G04 #@! TD*
G04 #@! TA.AperFunction,Conductor*
%ADD16C,0.250000*%
G04 #@! TD*
G04 #@! TA.AperFunction,Conductor*
%ADD17C,0.254000*%
G04 #@! TD*
G04 #@! TA.AperFunction,Conductor*
%ADD18C,0.100000*%
G04 #@! TD*
G04 APERTURE END LIST*
G04 #@! TO.P,J2,1*
G04 #@! TO.N,/P1*
G04 #@! TA.AperFunction,ComponentPad*
G36*
G01*
X184750000Y-69325000D02*
X184750000Y-70675000D01*
G75*
G02*
X183175000Y-72250000I-1575000J0D01*
G01*
X181825000Y-72250000D01*
G75*
G02*
X180250000Y-70675000I0J1575000D01*
G01*
X180250000Y-69325000D01*
G75*
G02*
X181825000Y-67750000I1575000J0D01*
G01*
X183175000Y-67750000D01*
G75*
G02*
X184750000Y-69325000I0J-1575000D01*
G01*
G37*
G04 #@! TD.AperFunction*
D10*
G04 #@! TO.P,J2,2*
G04 #@! TO.N,/P2*
X190000000Y-70000000D03*
G04 #@! TO.P,J2,3*
G04 #@! TO.N,/P3*
X197500000Y-70000000D03*
G04 #@! TO.P,J2,4*
G04 #@! TO.N,/P4*
X182500000Y-77500000D03*
G04 #@! TO.P,J2,5*
G04 #@! TO.N,/P5*
X190000000Y-77500000D03*
G04 #@! TO.P,J2,6*
G04 #@! TO.N,/MOSI*
X197500000Y-77500000D03*
G04 #@! TO.P,J2,7*
G04 #@! TO.N,/P7*
X182500000Y-85000000D03*
G04 #@! TO.P,J2,8*
G04 #@! TO.N,/P8*
X190000000Y-85000000D03*
G04 #@! TO.P,J2,9*
G04 #@! TO.N,/P9*
X197500000Y-85000000D03*
G04 #@! TO.P,J2,10*
G04 #@! TO.N,/P10*
X182500000Y-92500000D03*
G04 #@! TO.P,J2,11*
G04 #@! TO.N,/P11*
X197500000Y-92500000D03*
G04 #@! TD*
D11*
G04 #@! TO.P,J1,1*
G04 #@! TO.N,VCC*
X208730000Y-85050000D03*
G04 #@! TO.P,J1,2*
G04 #@! TO.N,/DATA*
X208730000Y-82510000D03*
G04 #@! TO.P,J1,3*
G04 #@! TO.N,GND*
X208730000Y-79970000D03*
G04 #@! TD*
D12*
G04 #@! TO.P,J3,5*
G04 #@! TO.N,/MOSI*
X207645000Y-103505000D03*
G04 #@! TO.P,J3,4*
G04 #@! TO.N,/MISO*
X207645000Y-100965000D03*
G04 #@! TO.P,J3,3*
G04 #@! TO.N,/SCK*
X207645000Y-98425000D03*
G04 #@! TO.P,J3,2*
G04 #@! TO.N,/~RST*
X207645000Y-95885000D03*
D13*
G04 #@! TO.P,J3,1*
G04 #@! TO.N,GND*
X207645000Y-93345000D03*
G04 #@! TD*
D14*
G04 #@! TO.N,GND*
X205613000Y-79970006D03*
X200342500Y-103949500D03*
X196342000Y-101727000D03*
X184785000Y-95885000D03*
G04 #@! TO.N,VCC*
X205613000Y-85050000D03*
X203835000Y-106299000D03*
X203835000Y-103886000D03*
G04 #@! TO.N,/DATA*
X205613000Y-82510000D03*
G04 #@! TO.N,/P11*
X189051056Y-102298500D03*
X185801000Y-102298500D03*
G04 #@! TD*
D15*
G04 #@! TO.N,GND*
X205613006Y-79970000D02*
X205613000Y-79970006D01*
X208730000Y-79970000D02*
X205613006Y-79970000D01*
G04 #@! TO.N,VCC*
X208730000Y-85050000D02*
X205613000Y-85050000D01*
X203835000Y-106299000D02*
X203835000Y-103886000D01*
D16*
G04 #@! TO.N,/DATA*
X208730000Y-82510000D02*
X205613000Y-82510000D01*
G04 #@! TO.N,/P11*
X189051056Y-102298500D02*
X185801000Y-102298500D01*
G04 #@! TD*
D17*
G04 #@! TO.N,GND*
X205690000Y-74896353D02*
X205686686Y-74930000D01*
X205699912Y-75064283D01*
X205739081Y-75193406D01*
X205802688Y-75312407D01*
X205888289Y-75416711D01*
X205992593Y-75502312D01*
X206111594Y-75565919D01*
X206240717Y-75605088D01*
X206375000Y-75618314D01*
X206408647Y-75615000D01*
X213945000Y-75615000D01*
X213945000Y-76666264D01*
X213846264Y-76765000D01*
X211663647Y-76765000D01*
X211630000Y-76761686D01*
X211596353Y-76765000D01*
X211495717Y-76774912D01*
X211366594Y-76814081D01*
X211247593Y-76877688D01*
X211143289Y-76963289D01*
X211057688Y-77067593D01*
X210994081Y-77186594D01*
X210954912Y-77315717D01*
X210941686Y-77450000D01*
X210945000Y-77483647D01*
X210945000Y-78432323D01*
X209015750Y-78435000D01*
X208857000Y-78593750D01*
X208857000Y-79843000D01*
X208877000Y-79843000D01*
X208877000Y-80097000D01*
X208857000Y-80097000D01*
X208857000Y-80117000D01*
X208603000Y-80117000D01*
X208603000Y-80097000D01*
X205753750Y-80097000D01*
X205595000Y-80255750D01*
X205591928Y-80870000D01*
X205604188Y-80994482D01*
X205640498Y-81114180D01*
X205699463Y-81224494D01*
X205712188Y-81240000D01*
X205699463Y-81255506D01*
X205640498Y-81365820D01*
X205607379Y-81475000D01*
X205511061Y-81475000D01*
X205311102Y-81514774D01*
X205122744Y-81592795D01*
X204953226Y-81706063D01*
X204809063Y-81850226D01*
X204695795Y-82019744D01*
X204617774Y-82208102D01*
X204578000Y-82408061D01*
X204578000Y-82611939D01*
X204617774Y-82811898D01*
X204695795Y-83000256D01*
X204809063Y-83169774D01*
X204953226Y-83313937D01*
X205122744Y-83427205D01*
X205311102Y-83505226D01*
X205511061Y-83545000D01*
X205607379Y-83545000D01*
X205640498Y-83654180D01*
X205699463Y-83764494D01*
X205712188Y-83780000D01*
X205699463Y-83795506D01*
X205640498Y-83905820D01*
X205607379Y-84015000D01*
X205511061Y-84015000D01*
X205311102Y-84054774D01*
X205122744Y-84132795D01*
X204953226Y-84246063D01*
X204809063Y-84390226D01*
X204695795Y-84559744D01*
X204617774Y-84748102D01*
X204578000Y-84948061D01*
X204578000Y-85151939D01*
X204617774Y-85351898D01*
X204695795Y-85540256D01*
X204809063Y-85709774D01*
X204953226Y-85853937D01*
X205122744Y-85967205D01*
X205311102Y-86045226D01*
X205511061Y-86085000D01*
X205607379Y-86085000D01*
X205640498Y-86194180D01*
X205699463Y-86304494D01*
X205778815Y-86401185D01*
X205875506Y-86480537D01*
X205985820Y-86539502D01*
X206105518Y-86575812D01*
X206230000Y-86588072D01*
X210945001Y-86588072D01*
X210945001Y-87616343D01*
X210941686Y-87650000D01*
X210954912Y-87784283D01*
X210994081Y-87913406D01*
X211057688Y-88032407D01*
X211143289Y-88136711D01*
X211247593Y-88222312D01*
X211366594Y-88285919D01*
X211495717Y-88325088D01*
X211596353Y-88335000D01*
X211630000Y-88338314D01*
X211663647Y-88335000D01*
X213846264Y-88335000D01*
X213945000Y-88433736D01*
X213945000Y-88933647D01*
X213945001Y-88933657D01*
X213945001Y-89485000D01*
X210218647Y-89485000D01*
X210185000Y-89481686D01*
X210151353Y-89485000D01*
X210050717Y-89494912D01*
X209921594Y-89534081D01*
X209802593Y-89597688D01*
X209698289Y-89683289D01*
X209612688Y-89787593D01*
X209549081Y-89906594D01*
X209509912Y-90035717D01*
X209496686Y-90170000D01*
X209500000Y-90203646D01*
X209500001Y-107900000D01*
X177850000Y-107900000D01*
X177850000Y-103784061D01*
X202800000Y-103784061D01*
X202800000Y-103987939D01*
X202839774Y-104187898D01*
X202917795Y-104376256D01*
X203000001Y-104499286D01*
X203000000Y-105685715D01*
X202917795Y-105808744D01*
X202839774Y-105997102D01*
X202800000Y-106197061D01*
X202800000Y-106400939D01*
X202839774Y-106600898D01*
X202917795Y-106789256D01*
X203031063Y-106958774D01*
X203175226Y-107102937D01*
X203344744Y-107216205D01*
X203533102Y-107294226D01*
X203733061Y-107334000D01*
X203936939Y-107334000D01*
X204136898Y-107294226D01*
X204325256Y-107216205D01*
X204494774Y-107102937D01*
X204638937Y-106958774D01*
X204752205Y-106789256D01*
X204830226Y-106600898D01*
X204870000Y-106400939D01*
X204870000Y-106197061D01*
X204830226Y-105997102D01*
X204752205Y-105808744D01*
X204670000Y-105685715D01*
X204670000Y-104499285D01*
X204752205Y-104376256D01*
X204830226Y-104187898D01*
X204870000Y-103987939D01*
X204870000Y-103784061D01*
X204830226Y-103584102D01*
X204752205Y-103395744D01*
X204638937Y-103226226D01*
X204494774Y-103082063D01*
X204325256Y-102968795D01*
X204136898Y-102890774D01*
X203936939Y-102851000D01*
X203733061Y-102851000D01*
X203533102Y-102890774D01*
X203344744Y-102968795D01*
X203175226Y-103082063D01*
X203031063Y-103226226D01*
X202917795Y-103395744D01*
X202839774Y-103584102D01*
X202800000Y-103784061D01*
X177850000Y-103784061D01*
X177850000Y-102196561D01*
X184766000Y-102196561D01*
X184766000Y-102400439D01*
X184805774Y-102600398D01*
X184883795Y-102788756D01*
X184997063Y-102958274D01*
X185141226Y-103102437D01*
X185310744Y-103215705D01*
X185499102Y-103293726D01*
X185699061Y-103333500D01*
X185902939Y-103333500D01*
X186102898Y-103293726D01*
X186291256Y-103215705D01*
X186460774Y-103102437D01*
X186504711Y-103058500D01*
X188347345Y-103058500D01*
X188391282Y-103102437D01*
X188560800Y-103215705D01*
X188749158Y-103293726D01*
X188949117Y-103333500D01*
X189152995Y-103333500D01*
X189352954Y-103293726D01*
X189541312Y-103215705D01*
X189710830Y-103102437D01*
X189854993Y-102958274D01*
X189968261Y-102788756D01*
X190046282Y-102600398D01*
X190086056Y-102400439D01*
X190086056Y-102196561D01*
X190046282Y-101996602D01*
X189968261Y-101808244D01*
X189854993Y-101638726D01*
X189710830Y-101494563D01*
X189541312Y-101381295D01*
X189352954Y-101303274D01*
X189152995Y-101263500D01*
X188949117Y-101263500D01*
X188749158Y-101303274D01*
X188560800Y-101381295D01*
X188391282Y-101494563D01*
X188347345Y-101538500D01*
X186504711Y-101538500D01*
X186460774Y-101494563D01*
X186291256Y-101381295D01*
X186102898Y-101303274D01*
X185902939Y-101263500D01*
X185699061Y-101263500D01*
X185499102Y-101303274D01*
X185310744Y-101381295D01*
X185141226Y-101494563D01*
X184997063Y-101638726D01*
X184883795Y-101808244D01*
X184805774Y-101996602D01*
X184766000Y-102196561D01*
X177850000Y-102196561D01*
X177850000Y-92215852D01*
X179615000Y-92215852D01*
X179615000Y-92784148D01*
X179725869Y-93341523D01*
X179943346Y-93866560D01*
X180259074Y-94339080D01*
X180660920Y-94740926D01*
X181133440Y-95056654D01*
X181658477Y-95274131D01*
X182215852Y-95385000D01*
X182784148Y-95385000D01*
X183341523Y-95274131D01*
X183866560Y-95056654D01*
X184339080Y-94740926D01*
X184740926Y-94339080D01*
X185056654Y-93866560D01*
X185274131Y-93341523D01*
X185385000Y-92784148D01*
X185385000Y-92215852D01*
X194615000Y-92215852D01*
X194615000Y-92784148D01*
X194725869Y-93341523D01*
X194943346Y-93866560D01*
X195259074Y-94339080D01*
X195660920Y-94740926D01*
X196133440Y-95056654D01*
X196658477Y-95274131D01*
X197215852Y-95385000D01*
X197784148Y-95385000D01*
X198341523Y-95274131D01*
X198866560Y-95056654D01*
X199339080Y-94740926D01*
X199740926Y-94339080D01*
X199837197Y-94195000D01*
X206156928Y-94195000D01*
X206169188Y-94319482D01*
X206205498Y-94439180D01*
X206264463Y-94549494D01*
X206343815Y-94646185D01*
X206440506Y-94725537D01*
X206550820Y-94784502D01*
X206623380Y-94806513D01*
X206491525Y-94938368D01*
X206329010Y-95181589D01*
X206217068Y-95451842D01*
X206160000Y-95738740D01*
X206160000Y-96031260D01*
X206217068Y-96318158D01*
X206329010Y-96588411D01*
X206491525Y-96831632D01*
X206698368Y-97038475D01*
X206872760Y-97155000D01*
X206698368Y-97271525D01*
X206491525Y-97478368D01*
X206329010Y-97721589D01*
X206217068Y-97991842D01*
X206160000Y-98278740D01*
X206160000Y-98571260D01*
X206217068Y-98858158D01*
X206329010Y-99128411D01*
X206491525Y-99371632D01*
X206698368Y-99578475D01*
X206872760Y-99695000D01*
X206698368Y-99811525D01*
X206491525Y-100018368D01*
X206329010Y-100261589D01*
X206217068Y-100531842D01*
X206160000Y-100818740D01*
X206160000Y-101111260D01*
X206217068Y-101398158D01*
X206329010Y-101668411D01*
X206491525Y-101911632D01*
X206698368Y-102118475D01*
X206872760Y-102235000D01*
X206698368Y-102351525D01*
X206491525Y-102558368D01*
X206329010Y-102801589D01*
X206217068Y-103071842D01*
X206160000Y-103358740D01*
X206160000Y-103651260D01*
X206217068Y-103938158D01*
X206329010Y-104208411D01*
X206491525Y-104451632D01*
X206698368Y-104658475D01*
X206941589Y-104820990D01*
X207211842Y-104932932D01*
X207498740Y-104990000D01*
X207791260Y-104990000D01*
X208078158Y-104932932D01*
X208348411Y-104820990D01*
X208591632Y-104658475D01*
X208798475Y-104451632D01*
X208960990Y-104208411D01*
X209072932Y-103938158D01*
X209130000Y-103651260D01*
X209130000Y-103358740D01*
X209072932Y-103071842D01*
X208960990Y-102801589D01*
X208798475Y-102558368D01*
X208591632Y-102351525D01*
X208417240Y-102235000D01*
X208591632Y-102118475D01*
X208798475Y-101911632D01*
X208960990Y-101668411D01*
X209072932Y-101398158D01*
X209130000Y-101111260D01*
X209130000Y-100818740D01*
X209072932Y-100531842D01*
X208960990Y-100261589D01*
X208798475Y-100018368D01*
X208591632Y-99811525D01*
X208417240Y-99695000D01*
X208591632Y-99578475D01*
X208798475Y-99371632D01*
X208960990Y-99128411D01*
X209072932Y-98858158D01*
X209130000Y-98571260D01*
X209130000Y-98278740D01*
X209072932Y-97991842D01*
X208960990Y-97721589D01*
X208798475Y-97478368D01*
X208591632Y-97271525D01*
X208417240Y-97155000D01*
X208591632Y-97038475D01*
X208798475Y-96831632D01*
X208960990Y-96588411D01*
X209072932Y-96318158D01*
X209130000Y-96031260D01*
X209130000Y-95738740D01*
X209072932Y-95451842D01*
X208960990Y-95181589D01*
X208798475Y-94938368D01*
X208666620Y-94806513D01*
X208739180Y-94784502D01*
X208849494Y-94725537D01*
X208946185Y-94646185D01*
X209025537Y-94549494D01*
X209084502Y-94439180D01*
X209120812Y-94319482D01*
X209133072Y-94195000D01*
X209130000Y-93630750D01*
X208971250Y-93472000D01*
X207772000Y-93472000D01*
X207772000Y-93492000D01*
X207518000Y-93492000D01*
X207518000Y-93472000D01*
X206318750Y-93472000D01*
X206160000Y-93630750D01*
X206156928Y-94195000D01*
X199837197Y-94195000D01*
X200056654Y-93866560D01*
X200274131Y-93341523D01*
X200385000Y-92784148D01*
X200385000Y-92495000D01*
X206156928Y-92495000D01*
X206160000Y-93059250D01*
X206318750Y-93218000D01*
X207518000Y-93218000D01*
X207518000Y-92018750D01*
X207772000Y-92018750D01*
X207772000Y-93218000D01*
X208971250Y-93218000D01*
X209130000Y-93059250D01*
X209133072Y-92495000D01*
X209120812Y-92370518D01*
X209084502Y-92250820D01*
X209025537Y-92140506D01*
X208946185Y-92043815D01*
X208849494Y-91964463D01*
X208739180Y-91905498D01*
X208619482Y-91869188D01*
X208495000Y-91856928D01*
X207930750Y-91860000D01*
X207772000Y-92018750D01*
X207518000Y-92018750D01*
X207359250Y-91860000D01*
X206795000Y-91856928D01*
X206670518Y-91869188D01*
X206550820Y-91905498D01*
X206440506Y-91964463D01*
X206343815Y-92043815D01*
X206264463Y-92140506D01*
X206205498Y-92250820D01*
X206169188Y-92370518D01*
X206156928Y-92495000D01*
X200385000Y-92495000D01*
X200385000Y-92215852D01*
X200274131Y-91658477D01*
X200056654Y-91133440D01*
X199740926Y-90660920D01*
X199339080Y-90259074D01*
X198866560Y-89943346D01*
X198341523Y-89725869D01*
X197784148Y-89615000D01*
X197215852Y-89615000D01*
X196658477Y-89725869D01*
X196133440Y-89943346D01*
X195660920Y-90259074D01*
X195259074Y-90660920D01*
X194943346Y-91133440D01*
X194725869Y-91658477D01*
X194615000Y-92215852D01*
X185385000Y-92215852D01*
X185274131Y-91658477D01*
X185056654Y-91133440D01*
X184740926Y-90660920D01*
X184339080Y-90259074D01*
X183866560Y-89943346D01*
X183341523Y-89725869D01*
X182784148Y-89615000D01*
X182215852Y-89615000D01*
X181658477Y-89725869D01*
X181133440Y-89943346D01*
X180660920Y-90259074D01*
X180259074Y-90660920D01*
X179943346Y-91133440D01*
X179725869Y-91658477D01*
X179615000Y-92215852D01*
X177850000Y-92215852D01*
X177850000Y-84715852D01*
X179615000Y-84715852D01*
X179615000Y-85284148D01*
X179725869Y-85841523D01*
X179943346Y-86366560D01*
X180259074Y-86839080D01*
X180660920Y-87240926D01*
X181133440Y-87556654D01*
X181658477Y-87774131D01*
X182215852Y-87885000D01*
X182784148Y-87885000D01*
X183341523Y-87774131D01*
X183866560Y-87556654D01*
X184339080Y-87240926D01*
X184740926Y-86839080D01*
X185056654Y-86366560D01*
X185274131Y-85841523D01*
X185385000Y-85284148D01*
X185385000Y-84715852D01*
X187115000Y-84715852D01*
X187115000Y-85284148D01*
X187225869Y-85841523D01*
X187443346Y-86366560D01*
X187759074Y-86839080D01*
X188160920Y-87240926D01*
X188633440Y-87556654D01*
X189158477Y-87774131D01*
X189715852Y-87885000D01*
X190284148Y-87885000D01*
X190841523Y-87774131D01*
X191366560Y-87556654D01*
X191839080Y-87240926D01*
X192240926Y-86839080D01*
X192556654Y-86366560D01*
X192774131Y-85841523D01*
X192885000Y-85284148D01*
X192885000Y-84715852D01*
X194615000Y-84715852D01*
X194615000Y-85284148D01*
X194725869Y-85841523D01*
X194943346Y-86366560D01*
X195259074Y-86839080D01*
X195660920Y-87240926D01*
X196133440Y-87556654D01*
X196658477Y-87774131D01*
X197215852Y-87885000D01*
X197784148Y-87885000D01*
X198341523Y-87774131D01*
X198866560Y-87556654D01*
X199339080Y-87240926D01*
X199740926Y-86839080D01*
X200056654Y-86366560D01*
X200274131Y-85841523D01*
X200385000Y-85284148D01*
X200385000Y-84715852D01*
X200274131Y-84158477D01*
X200056654Y-83633440D01*
X199740926Y-83160920D01*
X199339080Y-82759074D01*
X198866560Y-82443346D01*
X198341523Y-82225869D01*
X197784148Y-82115000D01*
X197215852Y-82115000D01*
X196658477Y-82225869D01*
X196133440Y-82443346D01*
X195660920Y-82759074D01*
X195259074Y-83160920D01*
X194943346Y-83633440D01*
X194725869Y-84158477D01*
X194615000Y-84715852D01*
X192885000Y-84715852D01*
X192774131Y-84158477D01*
X192556654Y-83633440D01*
X192240926Y-83160920D01*
X191839080Y-82759074D01*
X191366560Y-82443346D01*
X190841523Y-82225869D01*
X190284148Y-82115000D01*
X189715852Y-82115000D01*
X189158477Y-82225869D01*
X188633440Y-82443346D01*
X188160920Y-82759074D01*
X187759074Y-83160920D01*
X187443346Y-83633440D01*
X187225869Y-84158477D01*
X187115000Y-84715852D01*
X185385000Y-84715852D01*
X185274131Y-84158477D01*
X185056654Y-83633440D01*
X184740926Y-83160920D01*
X184339080Y-82759074D01*
X183866560Y-82443346D01*
X183341523Y-82225869D01*
X182784148Y-82115000D01*
X182215852Y-82115000D01*
X181658477Y-82225869D01*
X181133440Y-82443346D01*
X180660920Y-82759074D01*
X180259074Y-83160920D01*
X179943346Y-83633440D01*
X179725869Y-84158477D01*
X179615000Y-84715852D01*
X177850000Y-84715852D01*
X177850000Y-77215852D01*
X179615000Y-77215852D01*
X179615000Y-77784148D01*
X179725869Y-78341523D01*
X179943346Y-78866560D01*
X180259074Y-79339080D01*
X180660920Y-79740926D01*
X181133440Y-80056654D01*
X181658477Y-80274131D01*
X182215852Y-80385000D01*
X182784148Y-80385000D01*
X183341523Y-80274131D01*
X183866560Y-80056654D01*
X184339080Y-79740926D01*
X184740926Y-79339080D01*
X185056654Y-78866560D01*
X185274131Y-78341523D01*
X185385000Y-77784148D01*
X185385000Y-77215852D01*
X187115000Y-77215852D01*
X187115000Y-77784148D01*
X187225869Y-78341523D01*
X187443346Y-78866560D01*
X187759074Y-79339080D01*
X188160920Y-79740926D01*
X188633440Y-80056654D01*
X189158477Y-80274131D01*
X189715852Y-80385000D01*
X190284148Y-80385000D01*
X190841523Y-80274131D01*
X191366560Y-80056654D01*
X191839080Y-79740926D01*
X192240926Y-79339080D01*
X192556654Y-78866560D01*
X192774131Y-78341523D01*
X192885000Y-77784148D01*
X192885000Y-77215852D01*
X194615000Y-77215852D01*
X194615000Y-77784148D01*
X194725869Y-78341523D01*
X194943346Y-78866560D01*
X195259074Y-79339080D01*
X195660920Y-79740926D01*
X196133440Y-80056654D01*
X196658477Y-80274131D01*
X197215852Y-80385000D01*
X197784148Y-80385000D01*
X198341523Y-80274131D01*
X198866560Y-80056654D01*
X199339080Y-79740926D01*
X199740926Y-79339080D01*
X199920719Y-79070000D01*
X205591928Y-79070000D01*
X205595000Y-79684250D01*
X205753750Y-79843000D01*
X208603000Y-79843000D01*
X208603000Y-78593750D01*
X208444250Y-78435000D01*
X206230000Y-78431928D01*
X206105518Y-78444188D01*
X205985820Y-78480498D01*
X205875506Y-78539463D01*
X205778815Y-78618815D01*
X205699463Y-78715506D01*
X205640498Y-78825820D01*
X205604188Y-78945518D01*
X205591928Y-79070000D01*
X199920719Y-79070000D01*
X200056654Y-78866560D01*
X200274131Y-78341523D01*
X200385000Y-77784148D01*
X200385000Y-77215852D01*
X200274131Y-76658477D01*
X200056654Y-76133440D01*
X199740926Y-75660920D01*
X199339080Y-75259074D01*
X198866560Y-74943346D01*
X198341523Y-74725869D01*
X197784148Y-74615000D01*
X197215852Y-74615000D01*
X196658477Y-74725869D01*
X196133440Y-74943346D01*
X195660920Y-75259074D01*
X195259074Y-75660920D01*
X194943346Y-76133440D01*
X194725869Y-76658477D01*
X194615000Y-77215852D01*
X192885000Y-77215852D01*
X192774131Y-76658477D01*
X192556654Y-76133440D01*
X192240926Y-75660920D01*
X191839080Y-75259074D01*
X191366560Y-74943346D01*
X190841523Y-74725869D01*
X190284148Y-74615000D01*
X189715852Y-74615000D01*
X189158477Y-74725869D01*
X188633440Y-74943346D01*
X188160920Y-75259074D01*
X187759074Y-75660920D01*
X187443346Y-76133440D01*
X187225869Y-76658477D01*
X187115000Y-77215852D01*
X185385000Y-77215852D01*
X185274131Y-76658477D01*
X185056654Y-76133440D01*
X184740926Y-75660920D01*
X184339080Y-75259074D01*
X183866560Y-74943346D01*
X183341523Y-74725869D01*
X182784148Y-74615000D01*
X182215852Y-74615000D01*
X181658477Y-74725869D01*
X181133440Y-74943346D01*
X180660920Y-75259074D01*
X180259074Y-75660920D01*
X179943346Y-76133440D01*
X179725869Y-76658477D01*
X179615000Y-77215852D01*
X177850000Y-77215852D01*
X177850000Y-69325000D01*
X179611928Y-69325000D01*
X179611928Y-70675000D01*
X179654452Y-71106749D01*
X179780388Y-71521906D01*
X179984898Y-71904517D01*
X180260122Y-72239878D01*
X180595483Y-72515102D01*
X180978094Y-72719612D01*
X181393251Y-72845548D01*
X181825000Y-72888072D01*
X183175000Y-72888072D01*
X183606749Y-72845548D01*
X184021906Y-72719612D01*
X184404517Y-72515102D01*
X184739878Y-72239878D01*
X185015102Y-71904517D01*
X185219612Y-71521906D01*
X185345548Y-71106749D01*
X185388072Y-70675000D01*
X185388072Y-69715852D01*
X187115000Y-69715852D01*
X187115000Y-70284148D01*
X187225869Y-70841523D01*
X187443346Y-71366560D01*
X187759074Y-71839080D01*
X188160920Y-72240926D01*
X188633440Y-72556654D01*
X189158477Y-72774131D01*
X189715852Y-72885000D01*
X190284148Y-72885000D01*
X190841523Y-72774131D01*
X191366560Y-72556654D01*
X191839080Y-72240926D01*
X192240926Y-71839080D01*
X192556654Y-71366560D01*
X192774131Y-70841523D01*
X192885000Y-70284148D01*
X192885000Y-69715852D01*
X194615000Y-69715852D01*
X194615000Y-70284148D01*
X194725869Y-70841523D01*
X194943346Y-71366560D01*
X195259074Y-71839080D01*
X195660920Y-72240926D01*
X196133440Y-72556654D01*
X196658477Y-72774131D01*
X197215852Y-72885000D01*
X197784148Y-72885000D01*
X198341523Y-72774131D01*
X198866560Y-72556654D01*
X199339080Y-72240926D01*
X199740926Y-71839080D01*
X200056654Y-71366560D01*
X200274131Y-70841523D01*
X200385000Y-70284148D01*
X200385000Y-69715852D01*
X200274131Y-69158477D01*
X200056654Y-68633440D01*
X199740926Y-68160920D01*
X199339080Y-67759074D01*
X198866560Y-67443346D01*
X198341523Y-67225869D01*
X197784148Y-67115000D01*
X197215852Y-67115000D01*
X196658477Y-67225869D01*
X196133440Y-67443346D01*
X195660920Y-67759074D01*
X195259074Y-68160920D01*
X194943346Y-68633440D01*
X194725869Y-69158477D01*
X194615000Y-69715852D01*
X192885000Y-69715852D01*
X192774131Y-69158477D01*
X192556654Y-68633440D01*
X192240926Y-68160920D01*
X191839080Y-67759074D01*
X191366560Y-67443346D01*
X190841523Y-67225869D01*
X190284148Y-67115000D01*
X189715852Y-67115000D01*
X189158477Y-67225869D01*
X188633440Y-67443346D01*
X188160920Y-67759074D01*
X187759074Y-68160920D01*
X187443346Y-68633440D01*
X187225869Y-69158477D01*
X187115000Y-69715852D01*
X185388072Y-69715852D01*
X185388072Y-69325000D01*
X185345548Y-68893251D01*
X185219612Y-68478094D01*
X185015102Y-68095483D01*
X184739878Y-67760122D01*
X184404517Y-67484898D01*
X184021906Y-67280388D01*
X183606749Y-67154452D01*
X183175000Y-67111928D01*
X181825000Y-67111928D01*
X181393251Y-67154452D01*
X180978094Y-67280388D01*
X180595483Y-67484898D01*
X180260122Y-67760122D01*
X179984898Y-68095483D01*
X179780388Y-68478094D01*
X179654452Y-68893251D01*
X179611928Y-69325000D01*
X177850000Y-69325000D01*
X177850000Y-66090000D01*
X205690001Y-66090000D01*
X205690000Y-74896353D01*
G04 #@! TA.AperFunction,Conductor*
D18*
G36*
X205690000Y-74896353D02*
G01*
X205686686Y-74930000D01*
X205699912Y-75064283D01*
X205739081Y-75193406D01*
X205802688Y-75312407D01*
X205888289Y-75416711D01*
X205992593Y-75502312D01*
X206111594Y-75565919D01*
X206240717Y-75605088D01*
X206375000Y-75618314D01*
X206408647Y-75615000D01*
X213945000Y-75615000D01*
X213945000Y-76666264D01*
X213846264Y-76765000D01*
X211663647Y-76765000D01*
X211630000Y-76761686D01*
X211596353Y-76765000D01*
X211495717Y-76774912D01*
X211366594Y-76814081D01*
X211247593Y-76877688D01*
X211143289Y-76963289D01*
X211057688Y-77067593D01*
X210994081Y-77186594D01*
X210954912Y-77315717D01*
X210941686Y-77450000D01*
X210945000Y-77483647D01*
X210945000Y-78432323D01*
X209015750Y-78435000D01*
X208857000Y-78593750D01*
X208857000Y-79843000D01*
X208877000Y-79843000D01*
X208877000Y-80097000D01*
X208857000Y-80097000D01*
X208857000Y-80117000D01*
X208603000Y-80117000D01*
X208603000Y-80097000D01*
X205753750Y-80097000D01*
X205595000Y-80255750D01*
X205591928Y-80870000D01*
X205604188Y-80994482D01*
X205640498Y-81114180D01*
X205699463Y-81224494D01*
X205712188Y-81240000D01*
X205699463Y-81255506D01*
X205640498Y-81365820D01*
X205607379Y-81475000D01*
X205511061Y-81475000D01*
X205311102Y-81514774D01*
X205122744Y-81592795D01*
X204953226Y-81706063D01*
X204809063Y-81850226D01*
X204695795Y-82019744D01*
X204617774Y-82208102D01*
X204578000Y-82408061D01*
X204578000Y-82611939D01*
X204617774Y-82811898D01*
X204695795Y-83000256D01*
X204809063Y-83169774D01*
X204953226Y-83313937D01*
X205122744Y-83427205D01*
X205311102Y-83505226D01*
X205511061Y-83545000D01*
X205607379Y-83545000D01*
X205640498Y-83654180D01*
X205699463Y-83764494D01*
X205712188Y-83780000D01*
X205699463Y-83795506D01*
X205640498Y-83905820D01*
X205607379Y-84015000D01*
X205511061Y-84015000D01*
X205311102Y-84054774D01*
X205122744Y-84132795D01*
X204953226Y-84246063D01*
X204809063Y-84390226D01*
X204695795Y-84559744D01*
X204617774Y-84748102D01*
X204578000Y-84948061D01*
X204578000Y-85151939D01*
X204617774Y-85351898D01*
X204695795Y-85540256D01*
X204809063Y-85709774D01*
X204953226Y-85853937D01*
X205122744Y-85967205D01*
X205311102Y-86045226D01*
X205511061Y-86085000D01*
X205607379Y-86085000D01*
X205640498Y-86194180D01*
X205699463Y-86304494D01*
X205778815Y-86401185D01*
X205875506Y-86480537D01*
X205985820Y-86539502D01*
X206105518Y-86575812D01*
X206230000Y-86588072D01*
X210945001Y-86588072D01*
X210945001Y-87616343D01*
X210941686Y-87650000D01*
X210954912Y-87784283D01*
X210994081Y-87913406D01*
X211057688Y-88032407D01*
X211143289Y-88136711D01*
X211247593Y-88222312D01*
X211366594Y-88285919D01*
X211495717Y-88325088D01*
X211596353Y-88335000D01*
X211630000Y-88338314D01*
X211663647Y-88335000D01*
X213846264Y-88335000D01*
X213945000Y-88433736D01*
X213945000Y-88933647D01*
X213945001Y-88933657D01*
X213945001Y-89485000D01*
X210218647Y-89485000D01*
X210185000Y-89481686D01*
X210151353Y-89485000D01*
X210050717Y-89494912D01*
X209921594Y-89534081D01*
X209802593Y-89597688D01*
X209698289Y-89683289D01*
X209612688Y-89787593D01*
X209549081Y-89906594D01*
X209509912Y-90035717D01*
X209496686Y-90170000D01*
X209500000Y-90203646D01*
X209500001Y-107900000D01*
X177850000Y-107900000D01*
X177850000Y-103784061D01*
X202800000Y-103784061D01*
X202800000Y-103987939D01*
X202839774Y-104187898D01*
X202917795Y-104376256D01*
X203000001Y-104499286D01*
X203000000Y-105685715D01*
X202917795Y-105808744D01*
X202839774Y-105997102D01*
X202800000Y-106197061D01*
X202800000Y-106400939D01*
X202839774Y-106600898D01*
X202917795Y-106789256D01*
X203031063Y-106958774D01*
X203175226Y-107102937D01*
X203344744Y-107216205D01*
X203533102Y-107294226D01*
X203733061Y-107334000D01*
X203936939Y-107334000D01*
X204136898Y-107294226D01*
X204325256Y-107216205D01*
X204494774Y-107102937D01*
X204638937Y-106958774D01*
X204752205Y-106789256D01*
X204830226Y-106600898D01*
X204870000Y-106400939D01*
X204870000Y-106197061D01*
X204830226Y-105997102D01*
X204752205Y-105808744D01*
X204670000Y-105685715D01*
X204670000Y-104499285D01*
X204752205Y-104376256D01*
X204830226Y-104187898D01*
X204870000Y-103987939D01*
X204870000Y-103784061D01*
X204830226Y-103584102D01*
X204752205Y-103395744D01*
X204638937Y-103226226D01*
X204494774Y-103082063D01*
X204325256Y-102968795D01*
X204136898Y-102890774D01*
X203936939Y-102851000D01*
X203733061Y-102851000D01*
X203533102Y-102890774D01*
X203344744Y-102968795D01*
X203175226Y-103082063D01*
X203031063Y-103226226D01*
X202917795Y-103395744D01*
X202839774Y-103584102D01*
X202800000Y-103784061D01*
X177850000Y-103784061D01*
X177850000Y-102196561D01*
X184766000Y-102196561D01*
X184766000Y-102400439D01*
X184805774Y-102600398D01*
X184883795Y-102788756D01*
X184997063Y-102958274D01*
X185141226Y-103102437D01*
X185310744Y-103215705D01*
X185499102Y-103293726D01*
X185699061Y-103333500D01*
X185902939Y-103333500D01*
X186102898Y-103293726D01*
X186291256Y-103215705D01*
X186460774Y-103102437D01*
X186504711Y-103058500D01*
X188347345Y-103058500D01*
X188391282Y-103102437D01*
X188560800Y-103215705D01*
X188749158Y-103293726D01*
X188949117Y-103333500D01*
X189152995Y-103333500D01*
X189352954Y-103293726D01*
X189541312Y-103215705D01*
X189710830Y-103102437D01*
X189854993Y-102958274D01*
X189968261Y-102788756D01*
X190046282Y-102600398D01*
X190086056Y-102400439D01*
X190086056Y-102196561D01*
X190046282Y-101996602D01*
X189968261Y-101808244D01*
X189854993Y-101638726D01*
X189710830Y-101494563D01*
X189541312Y-101381295D01*
X189352954Y-101303274D01*
X189152995Y-101263500D01*
X188949117Y-101263500D01*
X188749158Y-101303274D01*
X188560800Y-101381295D01*
X188391282Y-101494563D01*
X188347345Y-101538500D01*
X186504711Y-101538500D01*
X186460774Y-101494563D01*
X186291256Y-101381295D01*
X186102898Y-101303274D01*
X185902939Y-101263500D01*
X185699061Y-101263500D01*
X185499102Y-101303274D01*
X185310744Y-101381295D01*
X185141226Y-101494563D01*
X184997063Y-101638726D01*
X184883795Y-101808244D01*
X184805774Y-101996602D01*
X184766000Y-102196561D01*
X177850000Y-102196561D01*
X177850000Y-92215852D01*
X179615000Y-92215852D01*
X179615000Y-92784148D01*
X179725869Y-93341523D01*
X179943346Y-93866560D01*
X180259074Y-94339080D01*
X180660920Y-94740926D01*
X181133440Y-95056654D01*
X181658477Y-95274131D01*
X182215852Y-95385000D01*
X182784148Y-95385000D01*
X183341523Y-95274131D01*
X183866560Y-95056654D01*
X184339080Y-94740926D01*
X184740926Y-94339080D01*
X185056654Y-93866560D01*
X185274131Y-93341523D01*
X185385000Y-92784148D01*
X185385000Y-92215852D01*
X194615000Y-92215852D01*
X194615000Y-92784148D01*
X194725869Y-93341523D01*
X194943346Y-93866560D01*
X195259074Y-94339080D01*
X195660920Y-94740926D01*
X196133440Y-95056654D01*
X196658477Y-95274131D01*
X197215852Y-95385000D01*
X197784148Y-95385000D01*
X198341523Y-95274131D01*
X198866560Y-95056654D01*
X199339080Y-94740926D01*
X199740926Y-94339080D01*
X199837197Y-94195000D01*
X206156928Y-94195000D01*
X206169188Y-94319482D01*
X206205498Y-94439180D01*
X206264463Y-94549494D01*
X206343815Y-94646185D01*
X206440506Y-94725537D01*
X206550820Y-94784502D01*
X206623380Y-94806513D01*
X206491525Y-94938368D01*
X206329010Y-95181589D01*
X206217068Y-95451842D01*
X206160000Y-95738740D01*
X206160000Y-96031260D01*
X206217068Y-96318158D01*
X206329010Y-96588411D01*
X206491525Y-96831632D01*
X206698368Y-97038475D01*
X206872760Y-97155000D01*
X206698368Y-97271525D01*
X206491525Y-97478368D01*
X206329010Y-97721589D01*
X206217068Y-97991842D01*
X206160000Y-98278740D01*
X206160000Y-98571260D01*
X206217068Y-98858158D01*
X206329010Y-99128411D01*
X206491525Y-99371632D01*
X206698368Y-99578475D01*
X206872760Y-99695000D01*
X206698368Y-99811525D01*
X206491525Y-100018368D01*
X206329010Y-100261589D01*
X206217068Y-100531842D01*
X206160000Y-100818740D01*
X206160000Y-101111260D01*
X206217068Y-101398158D01*
X206329010Y-101668411D01*
X206491525Y-101911632D01*
X206698368Y-102118475D01*
X206872760Y-102235000D01*
X206698368Y-102351525D01*
X206491525Y-102558368D01*
X206329010Y-102801589D01*
X206217068Y-103071842D01*
X206160000Y-103358740D01*
X206160000Y-103651260D01*
X206217068Y-103938158D01*
X206329010Y-104208411D01*
X206491525Y-104451632D01*
X206698368Y-104658475D01*
X206941589Y-104820990D01*
X207211842Y-104932932D01*
X207498740Y-104990000D01*
X207791260Y-104990000D01*
X208078158Y-104932932D01*
X208348411Y-104820990D01*
X208591632Y-104658475D01*
X208798475Y-104451632D01*
X208960990Y-104208411D01*
X209072932Y-103938158D01*
X209130000Y-103651260D01*
X209130000Y-103358740D01*
X209072932Y-103071842D01*
X208960990Y-102801589D01*
X208798475Y-102558368D01*
X208591632Y-102351525D01*
X208417240Y-102235000D01*
X208591632Y-102118475D01*
X208798475Y-101911632D01*
X208960990Y-101668411D01*
X209072932Y-101398158D01*
X209130000Y-101111260D01*
X209130000Y-100818740D01*
X209072932Y-100531842D01*
X208960990Y-100261589D01*
X208798475Y-100018368D01*
X208591632Y-99811525D01*
X208417240Y-99695000D01*
X208591632Y-99578475D01*
X208798475Y-99371632D01*
X208960990Y-99128411D01*
X209072932Y-98858158D01*
X209130000Y-98571260D01*
X209130000Y-98278740D01*
X209072932Y-97991842D01*
X208960990Y-97721589D01*
X208798475Y-97478368D01*
X208591632Y-97271525D01*
X208417240Y-97155000D01*
X208591632Y-97038475D01*
X208798475Y-96831632D01*
X208960990Y-96588411D01*
X209072932Y-96318158D01*
X209130000Y-96031260D01*
X209130000Y-95738740D01*
X209072932Y-95451842D01*
X208960990Y-95181589D01*
X208798475Y-94938368D01*
X208666620Y-94806513D01*
X208739180Y-94784502D01*
X208849494Y-94725537D01*
X208946185Y-94646185D01*
X209025537Y-94549494D01*
X209084502Y-94439180D01*
X209120812Y-94319482D01*
X209133072Y-94195000D01*
X209130000Y-93630750D01*
X208971250Y-93472000D01*
X207772000Y-93472000D01*
X207772000Y-93492000D01*
X207518000Y-93492000D01*
X207518000Y-93472000D01*
X206318750Y-93472000D01*
X206160000Y-93630750D01*
X206156928Y-94195000D01*
X199837197Y-94195000D01*
X200056654Y-93866560D01*
X200274131Y-93341523D01*
X200385000Y-92784148D01*
X200385000Y-92495000D01*
X206156928Y-92495000D01*
X206160000Y-93059250D01*
X206318750Y-93218000D01*
X207518000Y-93218000D01*
X207518000Y-92018750D01*
X207772000Y-92018750D01*
X207772000Y-93218000D01*
X208971250Y-93218000D01*
X209130000Y-93059250D01*
X209133072Y-92495000D01*
X209120812Y-92370518D01*
X209084502Y-92250820D01*
X209025537Y-92140506D01*
X208946185Y-92043815D01*
X208849494Y-91964463D01*
X208739180Y-91905498D01*
X208619482Y-91869188D01*
X208495000Y-91856928D01*
X207930750Y-91860000D01*
X207772000Y-92018750D01*
X207518000Y-92018750D01*
X207359250Y-91860000D01*
X206795000Y-91856928D01*
X206670518Y-91869188D01*
X206550820Y-91905498D01*
X206440506Y-91964463D01*
X206343815Y-92043815D01*
X206264463Y-92140506D01*
X206205498Y-92250820D01*
X206169188Y-92370518D01*
X206156928Y-92495000D01*
X200385000Y-92495000D01*
X200385000Y-92215852D01*
X200274131Y-91658477D01*
X200056654Y-91133440D01*
X199740926Y-90660920D01*
X199339080Y-90259074D01*
X198866560Y-89943346D01*
X198341523Y-89725869D01*
X197784148Y-89615000D01*
X197215852Y-89615000D01*
X196658477Y-89725869D01*
X196133440Y-89943346D01*
X195660920Y-90259074D01*
X195259074Y-90660920D01*
X194943346Y-91133440D01*
X194725869Y-91658477D01*
X194615000Y-92215852D01*
X185385000Y-92215852D01*
X185274131Y-91658477D01*
X185056654Y-91133440D01*
X184740926Y-90660920D01*
X184339080Y-90259074D01*
X183866560Y-89943346D01*
X183341523Y-89725869D01*
X182784148Y-89615000D01*
X182215852Y-89615000D01*
X181658477Y-89725869D01*
X181133440Y-89943346D01*
X180660920Y-90259074D01*
X180259074Y-90660920D01*
X179943346Y-91133440D01*
X179725869Y-91658477D01*
X179615000Y-92215852D01*
X177850000Y-92215852D01*
X177850000Y-84715852D01*
X179615000Y-84715852D01*
X179615000Y-85284148D01*
X179725869Y-85841523D01*
X179943346Y-86366560D01*
X180259074Y-86839080D01*
X180660920Y-87240926D01*
X181133440Y-87556654D01*
X181658477Y-87774131D01*
X182215852Y-87885000D01*
X182784148Y-87885000D01*
X183341523Y-87774131D01*
X183866560Y-87556654D01*
X184339080Y-87240926D01*
X184740926Y-86839080D01*
X185056654Y-86366560D01*
X185274131Y-85841523D01*
X185385000Y-85284148D01*
X185385000Y-84715852D01*
X187115000Y-84715852D01*
X187115000Y-85284148D01*
X187225869Y-85841523D01*
X187443346Y-86366560D01*
X187759074Y-86839080D01*
X188160920Y-87240926D01*
X188633440Y-87556654D01*
X189158477Y-87774131D01*
X189715852Y-87885000D01*
X190284148Y-87885000D01*
X190841523Y-87774131D01*
X191366560Y-87556654D01*
X191839080Y-87240926D01*
X192240926Y-86839080D01*
X192556654Y-86366560D01*
X192774131Y-85841523D01*
X192885000Y-85284148D01*
X192885000Y-84715852D01*
X194615000Y-84715852D01*
X194615000Y-85284148D01*
X194725869Y-85841523D01*
X194943346Y-86366560D01*
X195259074Y-86839080D01*
X195660920Y-87240926D01*
X196133440Y-87556654D01*
X196658477Y-87774131D01*
X197215852Y-87885000D01*
X197784148Y-87885000D01*
X198341523Y-87774131D01*
X198866560Y-87556654D01*
X199339080Y-87240926D01*
X199740926Y-86839080D01*
X200056654Y-86366560D01*
X200274131Y-85841523D01*
X200385000Y-85284148D01*
X200385000Y-84715852D01*
X200274131Y-84158477D01*
X200056654Y-83633440D01*
X199740926Y-83160920D01*
X199339080Y-82759074D01*
X198866560Y-82443346D01*
X198341523Y-82225869D01*
X197784148Y-82115000D01*
X197215852Y-82115000D01*
X196658477Y-82225869D01*
X196133440Y-82443346D01*
X195660920Y-82759074D01*
X195259074Y-83160920D01*
X194943346Y-83633440D01*
X194725869Y-84158477D01*
X194615000Y-84715852D01*
X192885000Y-84715852D01*
X192774131Y-84158477D01*
X192556654Y-83633440D01*
X192240926Y-83160920D01*
X191839080Y-82759074D01*
X191366560Y-82443346D01*
X190841523Y-82225869D01*
X190284148Y-82115000D01*
X189715852Y-82115000D01*
X189158477Y-82225869D01*
X188633440Y-82443346D01*
X188160920Y-82759074D01*
X187759074Y-83160920D01*
X187443346Y-83633440D01*
X187225869Y-84158477D01*
X187115000Y-84715852D01*
X185385000Y-84715852D01*
X185274131Y-84158477D01*
X185056654Y-83633440D01*
X184740926Y-83160920D01*
X184339080Y-82759074D01*
X183866560Y-82443346D01*
X183341523Y-82225869D01*
X182784148Y-82115000D01*
X182215852Y-82115000D01*
X181658477Y-82225869D01*
X181133440Y-82443346D01*
X180660920Y-82759074D01*
X180259074Y-83160920D01*
X179943346Y-83633440D01*
X179725869Y-84158477D01*
X179615000Y-84715852D01*
X177850000Y-84715852D01*
X177850000Y-77215852D01*
X179615000Y-77215852D01*
X179615000Y-77784148D01*
X179725869Y-78341523D01*
X179943346Y-78866560D01*
X180259074Y-79339080D01*
X180660920Y-79740926D01*
X181133440Y-80056654D01*
X181658477Y-80274131D01*
X182215852Y-80385000D01*
X182784148Y-80385000D01*
X183341523Y-80274131D01*
X183866560Y-80056654D01*
X184339080Y-79740926D01*
X184740926Y-79339080D01*
X185056654Y-78866560D01*
X185274131Y-78341523D01*
X185385000Y-77784148D01*
X185385000Y-77215852D01*
X187115000Y-77215852D01*
X187115000Y-77784148D01*
X187225869Y-78341523D01*
X187443346Y-78866560D01*
X187759074Y-79339080D01*
X188160920Y-79740926D01*
X188633440Y-80056654D01*
X189158477Y-80274131D01*
X189715852Y-80385000D01*
X190284148Y-80385000D01*
X190841523Y-80274131D01*
X191366560Y-80056654D01*
X191839080Y-79740926D01*
X192240926Y-79339080D01*
X192556654Y-78866560D01*
X192774131Y-78341523D01*
X192885000Y-77784148D01*
X192885000Y-77215852D01*
X194615000Y-77215852D01*
X194615000Y-77784148D01*
X194725869Y-78341523D01*
X194943346Y-78866560D01*
X195259074Y-79339080D01*
X195660920Y-79740926D01*
X196133440Y-80056654D01*
X196658477Y-80274131D01*
X197215852Y-80385000D01*
X197784148Y-80385000D01*
X198341523Y-80274131D01*
X198866560Y-80056654D01*
X199339080Y-79740926D01*
X199740926Y-79339080D01*
X199920719Y-79070000D01*
X205591928Y-79070000D01*
X205595000Y-79684250D01*
X205753750Y-79843000D01*
X208603000Y-79843000D01*
X208603000Y-78593750D01*
X208444250Y-78435000D01*
X206230000Y-78431928D01*
X206105518Y-78444188D01*
X205985820Y-78480498D01*
X205875506Y-78539463D01*
X205778815Y-78618815D01*
X205699463Y-78715506D01*
X205640498Y-78825820D01*
X205604188Y-78945518D01*
X205591928Y-79070000D01*
X199920719Y-79070000D01*
X200056654Y-78866560D01*
X200274131Y-78341523D01*
X200385000Y-77784148D01*
X200385000Y-77215852D01*
X200274131Y-76658477D01*
X200056654Y-76133440D01*
X199740926Y-75660920D01*
X199339080Y-75259074D01*
X198866560Y-74943346D01*
X198341523Y-74725869D01*
X197784148Y-74615000D01*
X197215852Y-74615000D01*
X196658477Y-74725869D01*
X196133440Y-74943346D01*
X195660920Y-75259074D01*
X195259074Y-75660920D01*
X194943346Y-76133440D01*
X194725869Y-76658477D01*
X194615000Y-77215852D01*
X192885000Y-77215852D01*
X192774131Y-76658477D01*
X192556654Y-76133440D01*
X192240926Y-75660920D01*
X191839080Y-75259074D01*
X191366560Y-74943346D01*
X190841523Y-74725869D01*
X190284148Y-74615000D01*
X189715852Y-74615000D01*
X189158477Y-74725869D01*
X188633440Y-74943346D01*
X188160920Y-75259074D01*
X187759074Y-75660920D01*
X187443346Y-76133440D01*
X187225869Y-76658477D01*
X187115000Y-77215852D01*
X185385000Y-77215852D01*
X185274131Y-76658477D01*
X185056654Y-76133440D01*
X184740926Y-75660920D01*
X184339080Y-75259074D01*
X183866560Y-74943346D01*
X183341523Y-74725869D01*
X182784148Y-74615000D01*
X182215852Y-74615000D01*
X181658477Y-74725869D01*
X181133440Y-74943346D01*
X180660920Y-75259074D01*
X180259074Y-75660920D01*
X179943346Y-76133440D01*
X179725869Y-76658477D01*
X179615000Y-77215852D01*
X177850000Y-77215852D01*
X177850000Y-69325000D01*
X179611928Y-69325000D01*
X179611928Y-70675000D01*
X179654452Y-71106749D01*
X179780388Y-71521906D01*
X179984898Y-71904517D01*
X180260122Y-72239878D01*
X180595483Y-72515102D01*
X180978094Y-72719612D01*
X181393251Y-72845548D01*
X181825000Y-72888072D01*
X183175000Y-72888072D01*
X183606749Y-72845548D01*
X184021906Y-72719612D01*
X184404517Y-72515102D01*
X184739878Y-72239878D01*
X185015102Y-71904517D01*
X185219612Y-71521906D01*
X185345548Y-71106749D01*
X185388072Y-70675000D01*
X185388072Y-69715852D01*
X187115000Y-69715852D01*
X187115000Y-70284148D01*
X187225869Y-70841523D01*
X187443346Y-71366560D01*
X187759074Y-71839080D01*
X188160920Y-72240926D01*
X188633440Y-72556654D01*
X189158477Y-72774131D01*
X189715852Y-72885000D01*
X190284148Y-72885000D01*
X190841523Y-72774131D01*
X191366560Y-72556654D01*
X191839080Y-72240926D01*
X192240926Y-71839080D01*
X192556654Y-71366560D01*
X192774131Y-70841523D01*
X192885000Y-70284148D01*
X192885000Y-69715852D01*
X194615000Y-69715852D01*
X194615000Y-70284148D01*
X194725869Y-70841523D01*
X194943346Y-71366560D01*
X195259074Y-71839080D01*
X195660920Y-72240926D01*
X196133440Y-72556654D01*
X196658477Y-72774131D01*
X197215852Y-72885000D01*
X197784148Y-72885000D01*
X198341523Y-72774131D01*
X198866560Y-72556654D01*
X199339080Y-72240926D01*
X199740926Y-71839080D01*
X200056654Y-71366560D01*
X200274131Y-70841523D01*
X200385000Y-70284148D01*
X200385000Y-69715852D01*
X200274131Y-69158477D01*
X200056654Y-68633440D01*
X199740926Y-68160920D01*
X199339080Y-67759074D01*
X198866560Y-67443346D01*
X198341523Y-67225869D01*
X197784148Y-67115000D01*
X197215852Y-67115000D01*
X196658477Y-67225869D01*
X196133440Y-67443346D01*
X195660920Y-67759074D01*
X195259074Y-68160920D01*
X194943346Y-68633440D01*
X194725869Y-69158477D01*
X194615000Y-69715852D01*
X192885000Y-69715852D01*
X192774131Y-69158477D01*
X192556654Y-68633440D01*
X192240926Y-68160920D01*
X191839080Y-67759074D01*
X191366560Y-67443346D01*
X190841523Y-67225869D01*
X190284148Y-67115000D01*
X189715852Y-67115000D01*
X189158477Y-67225869D01*
X188633440Y-67443346D01*
X188160920Y-67759074D01*
X187759074Y-68160920D01*
X187443346Y-68633440D01*
X187225869Y-69158477D01*
X187115000Y-69715852D01*
X185388072Y-69715852D01*
X185388072Y-69325000D01*
X185345548Y-68893251D01*
X185219612Y-68478094D01*
X185015102Y-68095483D01*
X184739878Y-67760122D01*
X184404517Y-67484898D01*
X184021906Y-67280388D01*
X183606749Y-67154452D01*
X183175000Y-67111928D01*
X181825000Y-67111928D01*
X181393251Y-67154452D01*
X180978094Y-67280388D01*
X180595483Y-67484898D01*
X180260122Y-67760122D01*
X179984898Y-68095483D01*
X179780388Y-68478094D01*
X179654452Y-68893251D01*
X179611928Y-69325000D01*
X177850000Y-69325000D01*
X177850000Y-66090000D01*
X205690001Y-66090000D01*
X205690000Y-74896353D01*
G37*
G04 #@! TD.AperFunction*
G04 #@! TD*
M02*
