(module TE_3-829868-3 (layer F.Cu) (tedit 5FE8C695)
  (fp_text reference REF** (at 6.985 -6.02) (layer F.SilkS)
    (effects (font (size 1 1) (thickness 0.15)))
  )
  (fp_text value TE_3-829868-3 (at 6.985 -7.02) (layer F.Fab)
    (effects (font (size 1 1) (thickness 0.15)))
  )
  (fp_line (start 3 5.1) (end 3 -5.1) (layer Edge.Cuts) (width 0.1))
  (fp_line (start 3 5.1) (end 0.5 5.1) (layer Edge.Cuts) (width 0.1))
  (fp_line (start 0.5 5.1) (end 0 5.6) (layer Edge.Cuts) (width 0.1))
  (fp_line (start 0 5.6) (end 0 6.35) (layer Edge.Cuts) (width 0.1))
  (fp_line (start 3 -5.1) (end 0.5 -5.1) (layer Edge.Cuts) (width 0.1))
  (fp_line (start 0.5 -5.1) (end 0 -5.6) (layer Edge.Cuts) (width 0.1))
  (fp_line (start 0 -5.6) (end 0 -6.35) (layer Edge.Cuts) (width 0.1))
  (fp_line (start 3.175 5.08) (end 8.89 5.08) (layer F.SilkS) (width 0.2))
  (fp_line (start 8.89 5.08) (end 8.89 -5.08) (layer F.SilkS) (width 0.2))
  (fp_line (start 3.175 -5.08) (end 8.89 -5.08) (layer F.SilkS) (width 0.2))
  (fp_line (start 0 -5.715) (end 8.89 -5.715) (layer F.CrtYd) (width 0.12))
  (fp_line (start 8.89 -5.715) (end 8.89 5.715) (layer F.CrtYd) (width 0.12))
  (fp_line (start 8.89 5.715) (end 0 5.715) (layer F.CrtYd) (width 0.12))
  (fp_line (start 0 5.715) (end 8.89 5.715) (layer B.CrtYd) (width 0.12))
  (fp_line (start 8.89 5.715) (end 8.89 -5.715) (layer B.CrtYd) (width 0.12))
  (fp_line (start 8.89 -5.715) (end 0 -5.715) (layer B.CrtYd) (width 0.12))
  (fp_line (start 0 -5.715) (end 0 5.715) (layer B.CrtYd) (width 0.12))
  (fp_line (start 0 5.715) (end 0 -5.715) (layer F.CrtYd) (width 0.12))
  (fp_line (start 3.175 -5.08) (end 8.89 -5.08) (layer B.SilkS) (width 0.2))
  (fp_line (start 8.89 5.08) (end 8.89 -5.08) (layer B.SilkS) (width 0.2))
  (fp_line (start 3.175 5.08) (end 8.89 5.08) (layer B.SilkS) (width 0.2))
  (pad 3 connect rect (at 5.9 2.58) (size 5 1.8) (layers F.Cu F.Mask))
  (pad 3 connect rect (at 5.9 2.58) (size 5 1.8) (layers B.Cu B.Mask))
  (pad 2 connect rect (at 5.9 0.04) (size 5 1.8) (layers F.Cu F.Mask))
  (pad 2 connect rect (at 5.9 0.04) (size 5 1.8) (layers B.Cu B.Mask))
  (pad 1 connect rect (at 5.9 -2.5) (size 5 1.8) (layers B.Cu B.Mask))
  (pad 1 connect rect (at 5.9 -2.5) (size 5 1.8) (layers F.Cu F.Mask))
)
