%TF.GenerationSoftware,KiCad,Pcbnew,5.1.8+dfsg1-1*%
%TF.CreationDate,2020-12-28T09:36:41+01:00*%
%TF.ProjectId,comm,636f6d6d-2e6b-4696-9361-645f70636258,rev?*%
%TF.SameCoordinates,Original*%
%TF.FileFunction,Soldermask,Top*%
%TF.FilePolarity,Negative*%
%FSLAX46Y46*%
G04 Gerber Fmt 4.6, Leading zero omitted, Abs format (unit mm)*
G04 Created by KiCad (PCBNEW 5.1.8+dfsg1-1) date 2020-12-28 09:36:41*
%MOMM*%
%LPD*%
G01*
G04 APERTURE LIST*
%ADD10R,1.060000X0.650000*%
%ADD11R,2.600000X2.600000*%
%ADD12O,1.700000X1.950000*%
%ADD13C,0.900000*%
%ADD14R,0.500000X2.500000*%
%ADD15R,2.000000X2.500000*%
G04 APERTURE END LIST*
%TO.C,C3*%
G36*
G01*
X66654500Y-86858500D02*
X66314500Y-86858500D01*
G75*
G02*
X66174500Y-86718500I0J140000D01*
G01*
X66174500Y-86438500D01*
G75*
G02*
X66314500Y-86298500I140000J0D01*
G01*
X66654500Y-86298500D01*
G75*
G02*
X66794500Y-86438500I0J-140000D01*
G01*
X66794500Y-86718500D01*
G75*
G02*
X66654500Y-86858500I-140000J0D01*
G01*
G37*
G36*
G01*
X66654500Y-87818500D02*
X66314500Y-87818500D01*
G75*
G02*
X66174500Y-87678500I0J140000D01*
G01*
X66174500Y-87398500D01*
G75*
G02*
X66314500Y-87258500I140000J0D01*
G01*
X66654500Y-87258500D01*
G75*
G02*
X66794500Y-87398500I0J-140000D01*
G01*
X66794500Y-87678500D01*
G75*
G02*
X66654500Y-87818500I-140000J0D01*
G01*
G37*
%TD*%
%TO.C,C2*%
G36*
G01*
X79175000Y-86761500D02*
X79175000Y-87101500D01*
G75*
G02*
X79035000Y-87241500I-140000J0D01*
G01*
X78755000Y-87241500D01*
G75*
G02*
X78615000Y-87101500I0J140000D01*
G01*
X78615000Y-86761500D01*
G75*
G02*
X78755000Y-86621500I140000J0D01*
G01*
X79035000Y-86621500D01*
G75*
G02*
X79175000Y-86761500I0J-140000D01*
G01*
G37*
G36*
G01*
X80135000Y-86761500D02*
X80135000Y-87101500D01*
G75*
G02*
X79995000Y-87241500I-140000J0D01*
G01*
X79715000Y-87241500D01*
G75*
G02*
X79575000Y-87101500I0J140000D01*
G01*
X79575000Y-86761500D01*
G75*
G02*
X79715000Y-86621500I140000J0D01*
G01*
X79995000Y-86621500D01*
G75*
G02*
X80135000Y-86761500I0J-140000D01*
G01*
G37*
%TD*%
%TO.C,R1*%
G36*
G01*
X64530000Y-86810000D02*
X64530000Y-87180000D01*
G75*
G02*
X64395000Y-87315000I-135000J0D01*
G01*
X64125000Y-87315000D01*
G75*
G02*
X63990000Y-87180000I0J135000D01*
G01*
X63990000Y-86810000D01*
G75*
G02*
X64125000Y-86675000I135000J0D01*
G01*
X64395000Y-86675000D01*
G75*
G02*
X64530000Y-86810000I0J-135000D01*
G01*
G37*
G36*
G01*
X65550000Y-86810000D02*
X65550000Y-87180000D01*
G75*
G02*
X65415000Y-87315000I-135000J0D01*
G01*
X65145000Y-87315000D01*
G75*
G02*
X65010000Y-87180000I0J135000D01*
G01*
X65010000Y-86810000D01*
G75*
G02*
X65145000Y-86675000I135000J0D01*
G01*
X65415000Y-86675000D01*
G75*
G02*
X65550000Y-86810000I0J-135000D01*
G01*
G37*
%TD*%
%TO.C,D3*%
G36*
G01*
X61395000Y-90592500D02*
X61395000Y-91017500D01*
G75*
G02*
X61182500Y-91230000I-212500J0D01*
G01*
X60382500Y-91230000D01*
G75*
G02*
X60170000Y-91017500I0J212500D01*
G01*
X60170000Y-90592500D01*
G75*
G02*
X60382500Y-90380000I212500J0D01*
G01*
X61182500Y-90380000D01*
G75*
G02*
X61395000Y-90592500I0J-212500D01*
G01*
G37*
G36*
G01*
X63020000Y-90592500D02*
X63020000Y-91017500D01*
G75*
G02*
X62807500Y-91230000I-212500J0D01*
G01*
X62007500Y-91230000D01*
G75*
G02*
X61795000Y-91017500I0J212500D01*
G01*
X61795000Y-90592500D01*
G75*
G02*
X62007500Y-90380000I212500J0D01*
G01*
X62807500Y-90380000D01*
G75*
G02*
X63020000Y-90592500I0J-212500D01*
G01*
G37*
%TD*%
%TO.C,D2*%
G36*
G01*
X61395000Y-88687500D02*
X61395000Y-89112500D01*
G75*
G02*
X61182500Y-89325000I-212500J0D01*
G01*
X60382500Y-89325000D01*
G75*
G02*
X60170000Y-89112500I0J212500D01*
G01*
X60170000Y-88687500D01*
G75*
G02*
X60382500Y-88475000I212500J0D01*
G01*
X61182500Y-88475000D01*
G75*
G02*
X61395000Y-88687500I0J-212500D01*
G01*
G37*
G36*
G01*
X63020000Y-88687500D02*
X63020000Y-89112500D01*
G75*
G02*
X62807500Y-89325000I-212500J0D01*
G01*
X62007500Y-89325000D01*
G75*
G02*
X61795000Y-89112500I0J212500D01*
G01*
X61795000Y-88687500D01*
G75*
G02*
X62007500Y-88475000I212500J0D01*
G01*
X62807500Y-88475000D01*
G75*
G02*
X63020000Y-88687500I0J-212500D01*
G01*
G37*
%TD*%
%TO.C,D1*%
G36*
G01*
X61395000Y-86782500D02*
X61395000Y-87207500D01*
G75*
G02*
X61182500Y-87420000I-212500J0D01*
G01*
X60382500Y-87420000D01*
G75*
G02*
X60170000Y-87207500I0J212500D01*
G01*
X60170000Y-86782500D01*
G75*
G02*
X60382500Y-86570000I212500J0D01*
G01*
X61182500Y-86570000D01*
G75*
G02*
X61395000Y-86782500I0J-212500D01*
G01*
G37*
G36*
G01*
X63020000Y-86782500D02*
X63020000Y-87207500D01*
G75*
G02*
X62807500Y-87420000I-212500J0D01*
G01*
X62007500Y-87420000D01*
G75*
G02*
X61795000Y-87207500I0J212500D01*
G01*
X61795000Y-86782500D01*
G75*
G02*
X62007500Y-86570000I212500J0D01*
G01*
X62807500Y-86570000D01*
G75*
G02*
X63020000Y-86782500I0J-212500D01*
G01*
G37*
%TD*%
D10*
%TO.C,U3*%
X79840000Y-88585000D03*
X79840000Y-90485000D03*
X77640000Y-90485000D03*
X77640000Y-89535000D03*
X77640000Y-88585000D03*
%TD*%
D11*
%TO.C,U2*%
X69850000Y-88900000D03*
G36*
G01*
X71437500Y-87525000D02*
X72137500Y-87525000D01*
G75*
G02*
X72200000Y-87587500I0J-62500D01*
G01*
X72200000Y-87712500D01*
G75*
G02*
X72137500Y-87775000I-62500J0D01*
G01*
X71437500Y-87775000D01*
G75*
G02*
X71375000Y-87712500I0J62500D01*
G01*
X71375000Y-87587500D01*
G75*
G02*
X71437500Y-87525000I62500J0D01*
G01*
G37*
G36*
G01*
X71437500Y-88025000D02*
X72137500Y-88025000D01*
G75*
G02*
X72200000Y-88087500I0J-62500D01*
G01*
X72200000Y-88212500D01*
G75*
G02*
X72137500Y-88275000I-62500J0D01*
G01*
X71437500Y-88275000D01*
G75*
G02*
X71375000Y-88212500I0J62500D01*
G01*
X71375000Y-88087500D01*
G75*
G02*
X71437500Y-88025000I62500J0D01*
G01*
G37*
G36*
G01*
X71437500Y-88525000D02*
X72137500Y-88525000D01*
G75*
G02*
X72200000Y-88587500I0J-62500D01*
G01*
X72200000Y-88712500D01*
G75*
G02*
X72137500Y-88775000I-62500J0D01*
G01*
X71437500Y-88775000D01*
G75*
G02*
X71375000Y-88712500I0J62500D01*
G01*
X71375000Y-88587500D01*
G75*
G02*
X71437500Y-88525000I62500J0D01*
G01*
G37*
G36*
G01*
X71437500Y-89025000D02*
X72137500Y-89025000D01*
G75*
G02*
X72200000Y-89087500I0J-62500D01*
G01*
X72200000Y-89212500D01*
G75*
G02*
X72137500Y-89275000I-62500J0D01*
G01*
X71437500Y-89275000D01*
G75*
G02*
X71375000Y-89212500I0J62500D01*
G01*
X71375000Y-89087500D01*
G75*
G02*
X71437500Y-89025000I62500J0D01*
G01*
G37*
G36*
G01*
X71437500Y-89525000D02*
X72137500Y-89525000D01*
G75*
G02*
X72200000Y-89587500I0J-62500D01*
G01*
X72200000Y-89712500D01*
G75*
G02*
X72137500Y-89775000I-62500J0D01*
G01*
X71437500Y-89775000D01*
G75*
G02*
X71375000Y-89712500I0J62500D01*
G01*
X71375000Y-89587500D01*
G75*
G02*
X71437500Y-89525000I62500J0D01*
G01*
G37*
G36*
G01*
X71437500Y-90025000D02*
X72137500Y-90025000D01*
G75*
G02*
X72200000Y-90087500I0J-62500D01*
G01*
X72200000Y-90212500D01*
G75*
G02*
X72137500Y-90275000I-62500J0D01*
G01*
X71437500Y-90275000D01*
G75*
G02*
X71375000Y-90212500I0J62500D01*
G01*
X71375000Y-90087500D01*
G75*
G02*
X71437500Y-90025000I62500J0D01*
G01*
G37*
G36*
G01*
X71037500Y-90425000D02*
X71162500Y-90425000D01*
G75*
G02*
X71225000Y-90487500I0J-62500D01*
G01*
X71225000Y-91187500D01*
G75*
G02*
X71162500Y-91250000I-62500J0D01*
G01*
X71037500Y-91250000D01*
G75*
G02*
X70975000Y-91187500I0J62500D01*
G01*
X70975000Y-90487500D01*
G75*
G02*
X71037500Y-90425000I62500J0D01*
G01*
G37*
G36*
G01*
X70537500Y-90425000D02*
X70662500Y-90425000D01*
G75*
G02*
X70725000Y-90487500I0J-62500D01*
G01*
X70725000Y-91187500D01*
G75*
G02*
X70662500Y-91250000I-62500J0D01*
G01*
X70537500Y-91250000D01*
G75*
G02*
X70475000Y-91187500I0J62500D01*
G01*
X70475000Y-90487500D01*
G75*
G02*
X70537500Y-90425000I62500J0D01*
G01*
G37*
G36*
G01*
X70037500Y-90425000D02*
X70162500Y-90425000D01*
G75*
G02*
X70225000Y-90487500I0J-62500D01*
G01*
X70225000Y-91187500D01*
G75*
G02*
X70162500Y-91250000I-62500J0D01*
G01*
X70037500Y-91250000D01*
G75*
G02*
X69975000Y-91187500I0J62500D01*
G01*
X69975000Y-90487500D01*
G75*
G02*
X70037500Y-90425000I62500J0D01*
G01*
G37*
G36*
G01*
X69537500Y-90425000D02*
X69662500Y-90425000D01*
G75*
G02*
X69725000Y-90487500I0J-62500D01*
G01*
X69725000Y-91187500D01*
G75*
G02*
X69662500Y-91250000I-62500J0D01*
G01*
X69537500Y-91250000D01*
G75*
G02*
X69475000Y-91187500I0J62500D01*
G01*
X69475000Y-90487500D01*
G75*
G02*
X69537500Y-90425000I62500J0D01*
G01*
G37*
G36*
G01*
X69037500Y-90425000D02*
X69162500Y-90425000D01*
G75*
G02*
X69225000Y-90487500I0J-62500D01*
G01*
X69225000Y-91187500D01*
G75*
G02*
X69162500Y-91250000I-62500J0D01*
G01*
X69037500Y-91250000D01*
G75*
G02*
X68975000Y-91187500I0J62500D01*
G01*
X68975000Y-90487500D01*
G75*
G02*
X69037500Y-90425000I62500J0D01*
G01*
G37*
G36*
G01*
X68537500Y-90425000D02*
X68662500Y-90425000D01*
G75*
G02*
X68725000Y-90487500I0J-62500D01*
G01*
X68725000Y-91187500D01*
G75*
G02*
X68662500Y-91250000I-62500J0D01*
G01*
X68537500Y-91250000D01*
G75*
G02*
X68475000Y-91187500I0J62500D01*
G01*
X68475000Y-90487500D01*
G75*
G02*
X68537500Y-90425000I62500J0D01*
G01*
G37*
G36*
G01*
X67562500Y-90025000D02*
X68262500Y-90025000D01*
G75*
G02*
X68325000Y-90087500I0J-62500D01*
G01*
X68325000Y-90212500D01*
G75*
G02*
X68262500Y-90275000I-62500J0D01*
G01*
X67562500Y-90275000D01*
G75*
G02*
X67500000Y-90212500I0J62500D01*
G01*
X67500000Y-90087500D01*
G75*
G02*
X67562500Y-90025000I62500J0D01*
G01*
G37*
G36*
G01*
X67562500Y-89525000D02*
X68262500Y-89525000D01*
G75*
G02*
X68325000Y-89587500I0J-62500D01*
G01*
X68325000Y-89712500D01*
G75*
G02*
X68262500Y-89775000I-62500J0D01*
G01*
X67562500Y-89775000D01*
G75*
G02*
X67500000Y-89712500I0J62500D01*
G01*
X67500000Y-89587500D01*
G75*
G02*
X67562500Y-89525000I62500J0D01*
G01*
G37*
G36*
G01*
X67562500Y-89025000D02*
X68262500Y-89025000D01*
G75*
G02*
X68325000Y-89087500I0J-62500D01*
G01*
X68325000Y-89212500D01*
G75*
G02*
X68262500Y-89275000I-62500J0D01*
G01*
X67562500Y-89275000D01*
G75*
G02*
X67500000Y-89212500I0J62500D01*
G01*
X67500000Y-89087500D01*
G75*
G02*
X67562500Y-89025000I62500J0D01*
G01*
G37*
G36*
G01*
X67562500Y-88525000D02*
X68262500Y-88525000D01*
G75*
G02*
X68325000Y-88587500I0J-62500D01*
G01*
X68325000Y-88712500D01*
G75*
G02*
X68262500Y-88775000I-62500J0D01*
G01*
X67562500Y-88775000D01*
G75*
G02*
X67500000Y-88712500I0J62500D01*
G01*
X67500000Y-88587500D01*
G75*
G02*
X67562500Y-88525000I62500J0D01*
G01*
G37*
G36*
G01*
X67562500Y-88025000D02*
X68262500Y-88025000D01*
G75*
G02*
X68325000Y-88087500I0J-62500D01*
G01*
X68325000Y-88212500D01*
G75*
G02*
X68262500Y-88275000I-62500J0D01*
G01*
X67562500Y-88275000D01*
G75*
G02*
X67500000Y-88212500I0J62500D01*
G01*
X67500000Y-88087500D01*
G75*
G02*
X67562500Y-88025000I62500J0D01*
G01*
G37*
G36*
G01*
X67562500Y-87525000D02*
X68262500Y-87525000D01*
G75*
G02*
X68325000Y-87587500I0J-62500D01*
G01*
X68325000Y-87712500D01*
G75*
G02*
X68262500Y-87775000I-62500J0D01*
G01*
X67562500Y-87775000D01*
G75*
G02*
X67500000Y-87712500I0J62500D01*
G01*
X67500000Y-87587500D01*
G75*
G02*
X67562500Y-87525000I62500J0D01*
G01*
G37*
G36*
G01*
X68537500Y-86550000D02*
X68662500Y-86550000D01*
G75*
G02*
X68725000Y-86612500I0J-62500D01*
G01*
X68725000Y-87312500D01*
G75*
G02*
X68662500Y-87375000I-62500J0D01*
G01*
X68537500Y-87375000D01*
G75*
G02*
X68475000Y-87312500I0J62500D01*
G01*
X68475000Y-86612500D01*
G75*
G02*
X68537500Y-86550000I62500J0D01*
G01*
G37*
G36*
G01*
X69037500Y-86550000D02*
X69162500Y-86550000D01*
G75*
G02*
X69225000Y-86612500I0J-62500D01*
G01*
X69225000Y-87312500D01*
G75*
G02*
X69162500Y-87375000I-62500J0D01*
G01*
X69037500Y-87375000D01*
G75*
G02*
X68975000Y-87312500I0J62500D01*
G01*
X68975000Y-86612500D01*
G75*
G02*
X69037500Y-86550000I62500J0D01*
G01*
G37*
G36*
G01*
X69537500Y-86550000D02*
X69662500Y-86550000D01*
G75*
G02*
X69725000Y-86612500I0J-62500D01*
G01*
X69725000Y-87312500D01*
G75*
G02*
X69662500Y-87375000I-62500J0D01*
G01*
X69537500Y-87375000D01*
G75*
G02*
X69475000Y-87312500I0J62500D01*
G01*
X69475000Y-86612500D01*
G75*
G02*
X69537500Y-86550000I62500J0D01*
G01*
G37*
G36*
G01*
X70037500Y-86550000D02*
X70162500Y-86550000D01*
G75*
G02*
X70225000Y-86612500I0J-62500D01*
G01*
X70225000Y-87312500D01*
G75*
G02*
X70162500Y-87375000I-62500J0D01*
G01*
X70037500Y-87375000D01*
G75*
G02*
X69975000Y-87312500I0J62500D01*
G01*
X69975000Y-86612500D01*
G75*
G02*
X70037500Y-86550000I62500J0D01*
G01*
G37*
G36*
G01*
X70537500Y-86550000D02*
X70662500Y-86550000D01*
G75*
G02*
X70725000Y-86612500I0J-62500D01*
G01*
X70725000Y-87312500D01*
G75*
G02*
X70662500Y-87375000I-62500J0D01*
G01*
X70537500Y-87375000D01*
G75*
G02*
X70475000Y-87312500I0J62500D01*
G01*
X70475000Y-86612500D01*
G75*
G02*
X70537500Y-86550000I62500J0D01*
G01*
G37*
G36*
G01*
X71037500Y-86550000D02*
X71162500Y-86550000D01*
G75*
G02*
X71225000Y-86612500I0J-62500D01*
G01*
X71225000Y-87312500D01*
G75*
G02*
X71162500Y-87375000I-62500J0D01*
G01*
X71037500Y-87375000D01*
G75*
G02*
X70975000Y-87312500I0J62500D01*
G01*
X70975000Y-86612500D01*
G75*
G02*
X71037500Y-86550000I62500J0D01*
G01*
G37*
%TD*%
D10*
%TO.C,U1*%
X66505000Y-83185000D03*
X66505000Y-82235000D03*
X66505000Y-84135000D03*
X64305000Y-84135000D03*
X64305000Y-83185000D03*
X64305000Y-82235000D03*
%TD*%
%TO.C,R5*%
G36*
G01*
X81464999Y-89935000D02*
X82365001Y-89935000D01*
G75*
G02*
X82615000Y-90184999I0J-249999D01*
G01*
X82615000Y-90710001D01*
G75*
G02*
X82365001Y-90960000I-249999J0D01*
G01*
X81464999Y-90960000D01*
G75*
G02*
X81215000Y-90710001I0J249999D01*
G01*
X81215000Y-90184999D01*
G75*
G02*
X81464999Y-89935000I249999J0D01*
G01*
G37*
G36*
G01*
X81464999Y-88110000D02*
X82365001Y-88110000D01*
G75*
G02*
X82615000Y-88359999I0J-249999D01*
G01*
X82615000Y-88885001D01*
G75*
G02*
X82365001Y-89135000I-249999J0D01*
G01*
X81464999Y-89135000D01*
G75*
G02*
X81215000Y-88885001I0J249999D01*
G01*
X81215000Y-88359999D01*
G75*
G02*
X81464999Y-88110000I249999J0D01*
G01*
G37*
%TD*%
%TO.C,R4*%
G36*
G01*
X65010000Y-88450000D02*
X65010000Y-88080000D01*
G75*
G02*
X65145000Y-87945000I135000J0D01*
G01*
X65415000Y-87945000D01*
G75*
G02*
X65550000Y-88080000I0J-135000D01*
G01*
X65550000Y-88450000D01*
G75*
G02*
X65415000Y-88585000I-135000J0D01*
G01*
X65145000Y-88585000D01*
G75*
G02*
X65010000Y-88450000I0J135000D01*
G01*
G37*
G36*
G01*
X63990000Y-88450000D02*
X63990000Y-88080000D01*
G75*
G02*
X64125000Y-87945000I135000J0D01*
G01*
X64395000Y-87945000D01*
G75*
G02*
X64530000Y-88080000I0J-135000D01*
G01*
X64530000Y-88450000D01*
G75*
G02*
X64395000Y-88585000I-135000J0D01*
G01*
X64125000Y-88585000D01*
G75*
G02*
X63990000Y-88450000I0J135000D01*
G01*
G37*
%TD*%
%TO.C,R3*%
G36*
G01*
X65010000Y-90990000D02*
X65010000Y-90620000D01*
G75*
G02*
X65145000Y-90485000I135000J0D01*
G01*
X65415000Y-90485000D01*
G75*
G02*
X65550000Y-90620000I0J-135000D01*
G01*
X65550000Y-90990000D01*
G75*
G02*
X65415000Y-91125000I-135000J0D01*
G01*
X65145000Y-91125000D01*
G75*
G02*
X65010000Y-90990000I0J135000D01*
G01*
G37*
G36*
G01*
X63990000Y-90990000D02*
X63990000Y-90620000D01*
G75*
G02*
X64125000Y-90485000I135000J0D01*
G01*
X64395000Y-90485000D01*
G75*
G02*
X64530000Y-90620000I0J-135000D01*
G01*
X64530000Y-90990000D01*
G75*
G02*
X64395000Y-91125000I-135000J0D01*
G01*
X64125000Y-91125000D01*
G75*
G02*
X63990000Y-90990000I0J135000D01*
G01*
G37*
%TD*%
%TO.C,R2*%
G36*
G01*
X64530000Y-89350000D02*
X64530000Y-89720000D01*
G75*
G02*
X64395000Y-89855000I-135000J0D01*
G01*
X64125000Y-89855000D01*
G75*
G02*
X63990000Y-89720000I0J135000D01*
G01*
X63990000Y-89350000D01*
G75*
G02*
X64125000Y-89215000I135000J0D01*
G01*
X64395000Y-89215000D01*
G75*
G02*
X64530000Y-89350000I0J-135000D01*
G01*
G37*
G36*
G01*
X65550000Y-89350000D02*
X65550000Y-89720000D01*
G75*
G02*
X65415000Y-89855000I-135000J0D01*
G01*
X65145000Y-89855000D01*
G75*
G02*
X65010000Y-89720000I0J135000D01*
G01*
X65010000Y-89350000D01*
G75*
G02*
X65145000Y-89215000I135000J0D01*
G01*
X65415000Y-89215000D01*
G75*
G02*
X65550000Y-89350000I0J-135000D01*
G01*
G37*
%TD*%
D12*
%TO.C,J3*%
X80469500Y-81664500D03*
X77969500Y-81664500D03*
G36*
G01*
X74619500Y-82389500D02*
X74619500Y-80939500D01*
G75*
G02*
X74869500Y-80689500I250000J0D01*
G01*
X76069500Y-80689500D01*
G75*
G02*
X76319500Y-80939500I0J-250000D01*
G01*
X76319500Y-82389500D01*
G75*
G02*
X76069500Y-82639500I-250000J0D01*
G01*
X74869500Y-82639500D01*
G75*
G02*
X74619500Y-82389500I0J250000D01*
G01*
G37*
%TD*%
%TO.C,J2*%
X80469500Y-73864500D03*
X77969500Y-73864500D03*
G36*
G01*
X74619500Y-74589500D02*
X74619500Y-73139500D01*
G75*
G02*
X74869500Y-72889500I250000J0D01*
G01*
X76069500Y-72889500D01*
G75*
G02*
X76319500Y-73139500I0J-250000D01*
G01*
X76319500Y-74589500D01*
G75*
G02*
X76069500Y-74839500I-250000J0D01*
G01*
X74869500Y-74839500D01*
G75*
G02*
X74619500Y-74589500I0J250000D01*
G01*
G37*
%TD*%
D13*
%TO.C,J1*%
X63205000Y-76200000D03*
X67605000Y-76200000D03*
D14*
X63805000Y-78800000D03*
X64605000Y-78800000D03*
X65405000Y-78800000D03*
X66205000Y-78800000D03*
X67005000Y-78800000D03*
D15*
X61005000Y-78800000D03*
X69805000Y-78800000D03*
X61005000Y-73300000D03*
X69805000Y-73300000D03*
%TD*%
%TO.C,C5*%
G36*
G01*
X75087500Y-88958000D02*
X74137500Y-88958000D01*
G75*
G02*
X73887500Y-88708000I0J250000D01*
G01*
X73887500Y-88208000D01*
G75*
G02*
X74137500Y-87958000I250000J0D01*
G01*
X75087500Y-87958000D01*
G75*
G02*
X75337500Y-88208000I0J-250000D01*
G01*
X75337500Y-88708000D01*
G75*
G02*
X75087500Y-88958000I-250000J0D01*
G01*
G37*
G36*
G01*
X75087500Y-90858000D02*
X74137500Y-90858000D01*
G75*
G02*
X73887500Y-90608000I0J250000D01*
G01*
X73887500Y-90108000D01*
G75*
G02*
X74137500Y-89858000I250000J0D01*
G01*
X75087500Y-89858000D01*
G75*
G02*
X75337500Y-90108000I0J-250000D01*
G01*
X75337500Y-90608000D01*
G75*
G02*
X75087500Y-90858000I-250000J0D01*
G01*
G37*
%TD*%
%TO.C,C4*%
G36*
G01*
X61435000Y-83370000D02*
X60485000Y-83370000D01*
G75*
G02*
X60235000Y-83120000I0J250000D01*
G01*
X60235000Y-82620000D01*
G75*
G02*
X60485000Y-82370000I250000J0D01*
G01*
X61435000Y-82370000D01*
G75*
G02*
X61685000Y-82620000I0J-250000D01*
G01*
X61685000Y-83120000D01*
G75*
G02*
X61435000Y-83370000I-250000J0D01*
G01*
G37*
G36*
G01*
X61435000Y-85270000D02*
X60485000Y-85270000D01*
G75*
G02*
X60235000Y-85020000I0J250000D01*
G01*
X60235000Y-84520000D01*
G75*
G02*
X60485000Y-84270000I250000J0D01*
G01*
X61435000Y-84270000D01*
G75*
G02*
X61685000Y-84520000I0J-250000D01*
G01*
X61685000Y-85020000D01*
G75*
G02*
X61435000Y-85270000I-250000J0D01*
G01*
G37*
%TD*%
%TO.C,C1*%
G36*
G01*
X70490500Y-83152000D02*
X70490500Y-82202000D01*
G75*
G02*
X70740500Y-81952000I250000J0D01*
G01*
X71240500Y-81952000D01*
G75*
G02*
X71490500Y-82202000I0J-250000D01*
G01*
X71490500Y-83152000D01*
G75*
G02*
X71240500Y-83402000I-250000J0D01*
G01*
X70740500Y-83402000D01*
G75*
G02*
X70490500Y-83152000I0J250000D01*
G01*
G37*
G36*
G01*
X68590500Y-83152000D02*
X68590500Y-82202000D01*
G75*
G02*
X68840500Y-81952000I250000J0D01*
G01*
X69340500Y-81952000D01*
G75*
G02*
X69590500Y-82202000I0J-250000D01*
G01*
X69590500Y-83152000D01*
G75*
G02*
X69340500Y-83402000I-250000J0D01*
G01*
X68840500Y-83402000D01*
G75*
G02*
X68590500Y-83152000I0J250000D01*
G01*
G37*
%TD*%
M02*
