%TF.GenerationSoftware,KiCad,Pcbnew,5.1.8+dfsg1-1*%
%TF.CreationDate,2020-12-28T09:36:41+01:00*%
%TF.ProjectId,comm,636f6d6d-2e6b-4696-9361-645f70636258,rev?*%
%TF.SameCoordinates,Original*%
%TF.FileFunction,Legend,Top*%
%TF.FilePolarity,Positive*%
%FSLAX46Y46*%
G04 Gerber Fmt 4.6, Leading zero omitted, Abs format (unit mm)*
G04 Created by KiCad (PCBNEW 5.1.8+dfsg1-1) date 2020-12-28 09:36:41*
%MOMM*%
%LPD*%
G01*
G04 APERTURE LIST*
%ADD10C,0.150000*%
%ADD11C,0.120000*%
G04 APERTURE END LIST*
D10*
X76335142Y-78620880D02*
X76001809Y-78144690D01*
X75763714Y-78620880D02*
X75763714Y-77620880D01*
X76144666Y-77620880D01*
X76239904Y-77668500D01*
X76287523Y-77716119D01*
X76335142Y-77811357D01*
X76335142Y-77954214D01*
X76287523Y-78049452D01*
X76239904Y-78097071D01*
X76144666Y-78144690D01*
X75763714Y-78144690D01*
X77144666Y-78573261D02*
X77049428Y-78620880D01*
X76858952Y-78620880D01*
X76763714Y-78573261D01*
X76716095Y-78478023D01*
X76716095Y-78097071D01*
X76763714Y-78001833D01*
X76858952Y-77954214D01*
X77049428Y-77954214D01*
X77144666Y-78001833D01*
X77192285Y-78097071D01*
X77192285Y-78192309D01*
X76716095Y-78287547D01*
X77525619Y-77954214D02*
X77763714Y-78620880D01*
X78001809Y-77954214D01*
X78382761Y-78620880D02*
X78382761Y-77620880D01*
X78858952Y-77954214D02*
X78858952Y-78620880D01*
X78858952Y-78049452D02*
X78906571Y-78001833D01*
X79001809Y-77954214D01*
X79144666Y-77954214D01*
X79239904Y-78001833D01*
X79287523Y-78097071D01*
X79287523Y-78620880D01*
X80192285Y-77954214D02*
X80192285Y-78763738D01*
X80144666Y-78858976D01*
X80097047Y-78906595D01*
X80001809Y-78954214D01*
X79858952Y-78954214D01*
X79763714Y-78906595D01*
X80192285Y-78573261D02*
X80097047Y-78620880D01*
X79906571Y-78620880D01*
X79811333Y-78573261D01*
X79763714Y-78525642D01*
X79716095Y-78430404D01*
X79716095Y-78144690D01*
X79763714Y-78049452D01*
X79811333Y-78001833D01*
X79906571Y-77954214D01*
X80097047Y-77954214D01*
X80192285Y-78001833D01*
D11*
%TO.C,C3*%
X66124500Y-87166336D02*
X66124500Y-86950664D01*
X66844500Y-87166336D02*
X66844500Y-86950664D01*
%TO.C,C2*%
X79482836Y-87291500D02*
X79267164Y-87291500D01*
X79482836Y-86571500D02*
X79267164Y-86571500D01*
%TO.C,R1*%
X64923641Y-87375000D02*
X64616359Y-87375000D01*
X64923641Y-86615000D02*
X64616359Y-86615000D01*
%TO.C,D3*%
X60795000Y-91490000D02*
X63280000Y-91490000D01*
X63280000Y-91490000D02*
X63280000Y-90120000D01*
X63280000Y-90120000D02*
X60795000Y-90120000D01*
%TO.C,D2*%
X60795000Y-89585000D02*
X63280000Y-89585000D01*
X63280000Y-89585000D02*
X63280000Y-88215000D01*
X63280000Y-88215000D02*
X60795000Y-88215000D01*
%TO.C,D1*%
X60795000Y-87680000D02*
X63280000Y-87680000D01*
X63280000Y-87680000D02*
X63280000Y-86310000D01*
X63280000Y-86310000D02*
X60795000Y-86310000D01*
%TO.C,U3*%
X77840000Y-91145000D02*
X79640000Y-91145000D01*
X79640000Y-87925000D02*
X77190000Y-87925000D01*
%TO.C,U2*%
X71960000Y-90535000D02*
X71960000Y-91010000D01*
X71960000Y-91010000D02*
X71485000Y-91010000D01*
X67740000Y-87265000D02*
X67740000Y-86790000D01*
X67740000Y-86790000D02*
X68215000Y-86790000D01*
X67740000Y-90535000D02*
X67740000Y-91010000D01*
X67740000Y-91010000D02*
X68215000Y-91010000D01*
X71960000Y-87265000D02*
X71960000Y-86790000D01*
%TO.C,U1*%
X64505000Y-84795000D02*
X66305000Y-84795000D01*
X66305000Y-81575000D02*
X63855000Y-81575000D01*
%TO.C,R5*%
X82650000Y-89307936D02*
X82650000Y-89762064D01*
X81180000Y-89307936D02*
X81180000Y-89762064D01*
%TO.C,R4*%
X64616359Y-87885000D02*
X64923641Y-87885000D01*
X64616359Y-88645000D02*
X64923641Y-88645000D01*
%TO.C,R3*%
X64616359Y-90425000D02*
X64923641Y-90425000D01*
X64616359Y-91185000D02*
X64923641Y-91185000D01*
%TO.C,R2*%
X64923641Y-89915000D02*
X64616359Y-89915000D01*
X64923641Y-89155000D02*
X64616359Y-89155000D01*
%TO.C,J3*%
X72909500Y-79204500D02*
X72909500Y-85174500D01*
X72909500Y-85174500D02*
X83029500Y-85174500D01*
X83029500Y-85174500D02*
X83029500Y-79204500D01*
X83029500Y-79204500D02*
X72909500Y-79204500D01*
X76219500Y-79214500D02*
X76219500Y-79964500D01*
X76219500Y-79964500D02*
X79719500Y-79964500D01*
X79719500Y-79964500D02*
X79719500Y-79214500D01*
X79719500Y-79214500D02*
X76219500Y-79214500D01*
X72919500Y-79214500D02*
X72919500Y-79964500D01*
X72919500Y-79964500D02*
X74719500Y-79964500D01*
X74719500Y-79964500D02*
X74719500Y-79214500D01*
X74719500Y-79214500D02*
X72919500Y-79214500D01*
X81219500Y-79214500D02*
X81219500Y-79964500D01*
X81219500Y-79964500D02*
X83019500Y-79964500D01*
X83019500Y-79964500D02*
X83019500Y-79214500D01*
X83019500Y-79214500D02*
X81219500Y-79214500D01*
X72919500Y-81464500D02*
X73669500Y-81464500D01*
X73669500Y-81464500D02*
X73669500Y-84414500D01*
X73669500Y-84414500D02*
X77969500Y-84414500D01*
X83019500Y-81464500D02*
X82269500Y-81464500D01*
X82269500Y-81464500D02*
X82269500Y-84414500D01*
X82269500Y-84414500D02*
X77969500Y-84414500D01*
X73869500Y-78914500D02*
X72619500Y-78914500D01*
X72619500Y-78914500D02*
X72619500Y-80164500D01*
%TO.C,J2*%
X72909500Y-71404500D02*
X72909500Y-77374500D01*
X72909500Y-77374500D02*
X83029500Y-77374500D01*
X83029500Y-77374500D02*
X83029500Y-71404500D01*
X83029500Y-71404500D02*
X72909500Y-71404500D01*
X76219500Y-71414500D02*
X76219500Y-72164500D01*
X76219500Y-72164500D02*
X79719500Y-72164500D01*
X79719500Y-72164500D02*
X79719500Y-71414500D01*
X79719500Y-71414500D02*
X76219500Y-71414500D01*
X72919500Y-71414500D02*
X72919500Y-72164500D01*
X72919500Y-72164500D02*
X74719500Y-72164500D01*
X74719500Y-72164500D02*
X74719500Y-71414500D01*
X74719500Y-71414500D02*
X72919500Y-71414500D01*
X81219500Y-71414500D02*
X81219500Y-72164500D01*
X81219500Y-72164500D02*
X83019500Y-72164500D01*
X83019500Y-72164500D02*
X83019500Y-71414500D01*
X83019500Y-71414500D02*
X81219500Y-71414500D01*
X72919500Y-73664500D02*
X73669500Y-73664500D01*
X73669500Y-73664500D02*
X73669500Y-76614500D01*
X73669500Y-76614500D02*
X77969500Y-76614500D01*
X83019500Y-73664500D02*
X82269500Y-73664500D01*
X82269500Y-73664500D02*
X82269500Y-76614500D01*
X82269500Y-76614500D02*
X77969500Y-76614500D01*
X73869500Y-71114500D02*
X72619500Y-71114500D01*
X72619500Y-71114500D02*
X72619500Y-72364500D01*
%TO.C,J1*%
X69365000Y-74750000D02*
X69365000Y-77350000D01*
X61445000Y-77350000D02*
X61445000Y-74750000D01*
X68605000Y-79660000D02*
X67455000Y-79660000D01*
X67455000Y-79660000D02*
X67455000Y-80250000D01*
X67455000Y-80250000D02*
X66755000Y-80250000D01*
X63355000Y-79660000D02*
X62205000Y-79660000D01*
X69365000Y-71850000D02*
X69365000Y-70190000D01*
X69365000Y-70190000D02*
X61445000Y-70190000D01*
X61445000Y-70190000D02*
X61445000Y-71850000D01*
%TO.C,C5*%
X73877500Y-89669252D02*
X73877500Y-89146748D01*
X75347500Y-89669252D02*
X75347500Y-89146748D01*
%TO.C,C4*%
X60225000Y-84081252D02*
X60225000Y-83558748D01*
X61695000Y-84081252D02*
X61695000Y-83558748D01*
%TO.C,C1*%
X69779248Y-81942000D02*
X70301752Y-81942000D01*
X69779248Y-83412000D02*
X70301752Y-83412000D01*
%TO.C,U3*%
D10*
X76390595Y-86637880D02*
X76390595Y-87447404D01*
X76438214Y-87542642D01*
X76485833Y-87590261D01*
X76581071Y-87637880D01*
X76771547Y-87637880D01*
X76866785Y-87590261D01*
X76914404Y-87542642D01*
X76962023Y-87447404D01*
X76962023Y-86637880D01*
X77342976Y-86637880D02*
X77962023Y-86637880D01*
X77628690Y-87018833D01*
X77771547Y-87018833D01*
X77866785Y-87066452D01*
X77914404Y-87114071D01*
X77962023Y-87209309D01*
X77962023Y-87447404D01*
X77914404Y-87542642D01*
X77866785Y-87590261D01*
X77771547Y-87637880D01*
X77485833Y-87637880D01*
X77390595Y-87590261D01*
X77342976Y-87542642D01*
%TO.C,U2*%
X68262595Y-85050380D02*
X68262595Y-85859904D01*
X68310214Y-85955142D01*
X68357833Y-86002761D01*
X68453071Y-86050380D01*
X68643547Y-86050380D01*
X68738785Y-86002761D01*
X68786404Y-85955142D01*
X68834023Y-85859904D01*
X68834023Y-85050380D01*
X69262595Y-85145619D02*
X69310214Y-85098000D01*
X69405452Y-85050380D01*
X69643547Y-85050380D01*
X69738785Y-85098000D01*
X69786404Y-85145619D01*
X69834023Y-85240857D01*
X69834023Y-85336095D01*
X69786404Y-85478952D01*
X69214976Y-86050380D01*
X69834023Y-86050380D01*
%TO.C,U1*%
X66802095Y-80605380D02*
X66802095Y-81414904D01*
X66849714Y-81510142D01*
X66897333Y-81557761D01*
X66992571Y-81605380D01*
X67183047Y-81605380D01*
X67278285Y-81557761D01*
X67325904Y-81510142D01*
X67373523Y-81414904D01*
X67373523Y-80605380D01*
X68373523Y-81605380D02*
X67802095Y-81605380D01*
X68087809Y-81605380D02*
X68087809Y-80605380D01*
X67992571Y-80748238D01*
X67897333Y-80843476D01*
X67802095Y-80891095D01*
%TO.C,R5*%
X81811833Y-87828380D02*
X81478500Y-87352190D01*
X81240404Y-87828380D02*
X81240404Y-86828380D01*
X81621357Y-86828380D01*
X81716595Y-86876000D01*
X81764214Y-86923619D01*
X81811833Y-87018857D01*
X81811833Y-87161714D01*
X81764214Y-87256952D01*
X81716595Y-87304571D01*
X81621357Y-87352190D01*
X81240404Y-87352190D01*
X82716595Y-86828380D02*
X82240404Y-86828380D01*
X82192785Y-87304571D01*
X82240404Y-87256952D01*
X82335642Y-87209333D01*
X82573738Y-87209333D01*
X82668976Y-87256952D01*
X82716595Y-87304571D01*
X82764214Y-87399809D01*
X82764214Y-87637904D01*
X82716595Y-87733142D01*
X82668976Y-87780761D01*
X82573738Y-87828380D01*
X82335642Y-87828380D01*
X82240404Y-87780761D01*
X82192785Y-87733142D01*
%TO.C,J3*%
X71651880Y-81422833D02*
X72366166Y-81422833D01*
X72509023Y-81470452D01*
X72604261Y-81565690D01*
X72651880Y-81708547D01*
X72651880Y-81803785D01*
X71651880Y-81041880D02*
X71651880Y-80422833D01*
X72032833Y-80756166D01*
X72032833Y-80613309D01*
X72080452Y-80518071D01*
X72128071Y-80470452D01*
X72223309Y-80422833D01*
X72461404Y-80422833D01*
X72556642Y-80470452D01*
X72604261Y-80518071D01*
X72651880Y-80613309D01*
X72651880Y-80899023D01*
X72604261Y-80994261D01*
X72556642Y-81041880D01*
%TO.C,J2*%
X71651880Y-75453833D02*
X72366166Y-75453833D01*
X72509023Y-75501452D01*
X72604261Y-75596690D01*
X72651880Y-75739547D01*
X72651880Y-75834785D01*
X71747119Y-75025261D02*
X71699500Y-74977642D01*
X71651880Y-74882404D01*
X71651880Y-74644309D01*
X71699500Y-74549071D01*
X71747119Y-74501452D01*
X71842357Y-74453833D01*
X71937595Y-74453833D01*
X72080452Y-74501452D01*
X72651880Y-75072880D01*
X72651880Y-74453833D01*
%TO.C,J1*%
X60094880Y-76215833D02*
X60809166Y-76215833D01*
X60952023Y-76263452D01*
X61047261Y-76358690D01*
X61094880Y-76501547D01*
X61094880Y-76596785D01*
X61094880Y-75215833D02*
X61094880Y-75787261D01*
X61094880Y-75501547D02*
X60094880Y-75501547D01*
X60237738Y-75596785D01*
X60332976Y-75692023D01*
X60380595Y-75787261D01*
%TO.C,C5*%
X74445833Y-87542642D02*
X74398214Y-87590261D01*
X74255357Y-87637880D01*
X74160119Y-87637880D01*
X74017261Y-87590261D01*
X73922023Y-87495023D01*
X73874404Y-87399785D01*
X73826785Y-87209309D01*
X73826785Y-87066452D01*
X73874404Y-86875976D01*
X73922023Y-86780738D01*
X74017261Y-86685500D01*
X74160119Y-86637880D01*
X74255357Y-86637880D01*
X74398214Y-86685500D01*
X74445833Y-86733119D01*
X75350595Y-86637880D02*
X74874404Y-86637880D01*
X74826785Y-87114071D01*
X74874404Y-87066452D01*
X74969642Y-87018833D01*
X75207738Y-87018833D01*
X75302976Y-87066452D01*
X75350595Y-87114071D01*
X75398214Y-87209309D01*
X75398214Y-87447404D01*
X75350595Y-87542642D01*
X75302976Y-87590261D01*
X75207738Y-87637880D01*
X74969642Y-87637880D01*
X74874404Y-87590261D01*
X74826785Y-87542642D01*
%TO.C,C4*%
X62841142Y-83986666D02*
X62888761Y-84034285D01*
X62936380Y-84177142D01*
X62936380Y-84272380D01*
X62888761Y-84415238D01*
X62793523Y-84510476D01*
X62698285Y-84558095D01*
X62507809Y-84605714D01*
X62364952Y-84605714D01*
X62174476Y-84558095D01*
X62079238Y-84510476D01*
X61984000Y-84415238D01*
X61936380Y-84272380D01*
X61936380Y-84177142D01*
X61984000Y-84034285D01*
X62031619Y-83986666D01*
X62269714Y-83129523D02*
X62936380Y-83129523D01*
X61888761Y-83367619D02*
X62603047Y-83605714D01*
X62603047Y-82986666D01*
%TO.C,C1*%
X69873833Y-81354142D02*
X69826214Y-81401761D01*
X69683357Y-81449380D01*
X69588119Y-81449380D01*
X69445261Y-81401761D01*
X69350023Y-81306523D01*
X69302404Y-81211285D01*
X69254785Y-81020809D01*
X69254785Y-80877952D01*
X69302404Y-80687476D01*
X69350023Y-80592238D01*
X69445261Y-80497000D01*
X69588119Y-80449380D01*
X69683357Y-80449380D01*
X69826214Y-80497000D01*
X69873833Y-80544619D01*
X70826214Y-81449380D02*
X70254785Y-81449380D01*
X70540500Y-81449380D02*
X70540500Y-80449380D01*
X70445261Y-80592238D01*
X70350023Y-80687476D01*
X70254785Y-80735095D01*
%TD*%
M02*
